Todd Gurley	LAR	288.9	1298.20	10.9	66.1	624.3	3.7	2.8	274.2
Le'Veon Bell	PIT	302.6	1308.60	9.6	82.2	656.8	2.8	2.3	266.2
Ezekiel Elliott	DAL	311	1394.40	11.2	40.7	371.1	1.9	1.6	251.6
David Johnson	ARI	276.9	1077.70	8.5	76.1	764	3.2	3.6	247.3
Alvin Kamara	NO	171	853.4	7.5	75.8	724.1	4.2	1	226.1
Kareem Hunt	KC	250.1	1126.80	8	53.2	428.3	2.2	1.6	213.6
Melvin Gordon	LAC	274.5	1077.70	7.5	54.6	459.4	2.5	1	211.9
Leonard Fournette	JAC	287.3	1159.70	9.5	37.2	303.6	1.1	1.1	207.4
Saquon Barkley	NYG	256.5	1104.20	7.3	53.5	417.5	1.9	1.1	205
Dalvin Cook	MIN	262.1	1127.80	7.4	45.3	363.4	1.8	1.8	200.8
Devonta Freeman	ATL	221	966.4	7.9	45.1	384	1.8	1.6	190
LeSean McCoy	BUF	239.4	1015.50	5.9	52.4	407.5	1.7	1.1	185.7
Christian McCaffrey	CAR	156	625.4	3.7	75.8	661.6	4.3	1.1	174.6
Jerick McKinnon	SF	213.9	857.1	5.8	57.8	452.2	1.9	1.9	173.1
Jordan Howard	CHI	248.9	1045.70	7.5	26.8	195	0.8	0.8	171.9
Joe Mixon	CIN	230.5	900.1	6.3	37.6	312.8	1.1	2	161.9
Derrick Henry	TEN	213.1	913.7	6.9	21.4	194.9	0.9	1	155.8
Alex Collins	BAL	222.6	940.6	6.1	28	210	0.8	2.9	150.4
Jay Ajayi	PHI	224.2	964.5	5.7	26.2	185.6	0.8	2.4	149
Kenyan Drake	MIA	186.7	804.5	5.2	41.4	308.2	1.2	1.6	146.3
Derrius Guice	WAS	207.4	857.2	6.1	25.6	204	0.8	1.6	144.3
Lamar Miller	HOU	201.8	787.9	4.1	35.1	286.9	1.8	0.9	141.4
Rashaad Penny	SEA	188.8	774.5	4.9	29.3	230.5	1.3	1	135.3
Mark Ingram	NO	155.2	715.2	6	32.7	242.8	1.1	2	134.6
Marshawn Lynch	OAK	185.3	785.3	6.3	20.7	150.5	0.5	1.2	131.7
Tevin Coleman	ATL	148.7	614.6	4.5	33.2	318.3	2.1	0.8	131.3
Royce Freeman	DEN	179.9	743.1	4.6	28.4	222.1	0.7	1.5	125.6
Dion Lewis	TEN	139.2	629.7	3.8	41.7	311	1.8	1.4	125.4
Sony Michel	NE	158.5	670.5	5.5	26.8	212.8	0.8	1	124.2
Ronald Jones II	TB	191.3	757.6	4.2	27.6	209.5	0.7	1.5	122.8
Marlon Mack	IND	157.1	612.9	4.5	28.3	256.8	1.4	0.8	120.7
Rex Burkhead	NE	110.1	492	5.2	32.7	275.9	2	0.8	118
Isaiah Crowell	NYJ	173.8	683.3	4.3	27.6	198.7	0.7	0.9	116.4
Chris Thompson	WAS	76	321.8	2	56.9	534	3.1	2	112
Carlos Hyde	CLE	153.6	639.5	4.5	26.7	171.2	0.5	1.9	106.8
Duke Johnson	CLE	72.8	313.9	2	57.1	507.7	1.8	1.5	101.8
Jamaal Williams	GB	125	514.5	3.7	23.7	217.1	1.2	0.5	101.6
Devontae Booker	DEN	130.2	518.8	2.8	32.5	266.2	0.9	1.4	97.9
Bilal Powell	NYJ	126.6	523.4	3.4	29.2	212.6	0.7	0.9	96.2
Kerryon Johnson	DET	134.4	531.4	3.8	25.8	186.8	0.7	1.2	96.1
Tarik Cohen	CHI	83.3	336	1.8	57.3	428.3	1.7	1.4	94.9
James White	NE	60.7	246.1	2.1	50.5	399.5	3	0.6	94.3
D'Onta Foreman	HOU	143.5	565.2	3.6	16.4	140.1	0.6	1.4	93.1
Ty Montgomery	GB	84.4	359.7	2.7	40.9	311.7	1.6	0.6	91.8
C.J. Anderson	CAR	135.2	558.1	3.9	12.7	103.3	0.5	0.7	90.9
Giovani Bernard	CIN	89.9	372.8	1.9	36	308.7	1.4	0.9	86.6
Aaron Jones	GB	105.4	469.1	3.7	17.1	115.9	0.4	0.5	82.5
Nick Chubb	CLE	117.8	498.1	3.6	14.3	108	0.3	1.4	81.3
Latavius Murray	MIN	118.6	469.7	3.6	16.3	117.2	0.4	0.8	81.2
Corey Clement	PHI	83.9	345.9	3.2	22.5	210.7	1.2	0.8	81
Frank Gore	MIA	111	438.7	2.4	25.2	192.8	0.8	0.9	80.7
Matt Breida	SF	99.5	427.2	2.8	20.3	165.1	0.8	1	78.6
Theo Riddick	DET	59	219.4	1.3	48.7	385.2	2	0.9	78.4
Austin Ekeler	LAC	82.2	334.2	2.1	28.6	251.4	1.6	2.8	75.1
Javorius Allen	BAL	87.7	341.8	2.3	29.6	192.9	0.8	0.5	71.1
Chris Ivory	BUF	103.4	405	2.5	17.6	132.9	0.7	1.7	69.5
Doug Martin	OAK	114.3	414.5	3	12.5	103.4	0.2	1.1	69
Chris Carson	SEA	89.2	357	2.2	18.9	160.3	0.8	0.7	68.8
Nyheim Hines	IND	75.8	296.7	1.8	28.5	223.1	1.2	0.7	68.5
LeGarrette Blount	DET	104.9	419.2	3.7	6.7	46.4	0.2	1	68
Peyton Barber	TB	101.6	409	2.7	12.6	95.1	0.3	1	66.7
Kenneth Dixon	BAL	78	332	2.2	23.6	159.3	0.7	0.8	64.7
Darren Sproles	PHI	51.8	213.2	1.2	32.9	276.1	1.3	1.5	61.2
T.J. Yeldon	JAC	64.4	285.8	1.6	26.3	202.8	0.5	0.8	59.7
Spencer Ware	KC	75	311.5	2.2	13.5	122.3	0.5	1.4	56.7
Corey Grant	JAC	58.1	255	1.8	12.9	108.4	0.4	0.9	48.2
Jonathan Stewart	NYG	72	271.7	2.5	8.2	53.6	0.2	0.6	47.5
Elijah McGuire	NYJ	59.7	227.8	1.3	18.1	156.6	0.6	1.6	46.7
Wayne Gallman	NYG	53.2	211.6	1	25.4	170.4	0.7	1	46.1
Ameer Abdullah	DET	61.5	223.9	1.7	16.6	119.5	0.6	0.9	46
Tavon Austin	DAL	27.7	135.3	1	21.8	192.8	1.1	0	45.4
Rod Smith	DAL	47.8	207	1.7	11.9	102.2	0.6	0.7	43.4
Charles Sims	TB	38.8	140.8	0.5	26.7	208.9	0.8	1	41.1
Chase Edmonds	ARI	56.5	210.7	1.5	14	108.9	0.2	0.8	40.4
Jalen Richard	OAK	42.1	181.6	1.1	17.9	145.7	0.6	1.8	39.4
Jordan Wilkins	IND	57.4	228.7	1.4	8.5	65.3	0.2	0.2	38.5
De'Angelo Henderson	DEN	57.1	217.8	1	10.1	89.4	0.6	1.1	38.3
James Conner	PIT	58.2	234.1	1.7	6.2	42	0.2	0.7	37.7
DeAndre Washington	OAK	37.8	145.2	1.2	18.1	120.8	0.6	0.1	36.9
Samaje Perine	WAS	59.4	219.1	1.4	9.5	77	0.2	2.2	34.8
Robert Turbin	IND	48.1	176	1.4	11.2	80.6	0.3	0.7	34.4
Travaris Cadet	BUF	40.2	160.9	0.9	13.3	95	0.3	0.6	32
Kyle Juszczyk	SF	9	35.8	0.2	30.4	254.4	1	2.3	31.6
Christine Michael	IND	40.8	158.6	1.1	14.6	99.5	0.5	2.1	31.3
C.J. Prosise	SEA	30.5	116.8	0.7	13.1	132.4	0.4	0.1	30.8
Kalen Ballage	MIA	41.4	165.7	0.9	11.3	86.4	0.2	0.8	30.6
Malcolm Brown	LAR	49.9	202.3	1.1	6.1	43.9	0.1	1	30
Terrance West	NO	40.7	166.6	1.5	5.8	47.4	0.1	0.5	29.8
Joe Williams	SF	38	147.8	1.1	8.8	70.2	0.2	0.3	29
Jeremy Hill	NE	39.4	152.6	1.7	3.6	26.7	0	0.2	28
John Kelly	LAR	45.5	179.5	0.9	5.7	41.5	0.1	0.2	27.4
Cameron Artis-Payne	CAR	41.4	167	1.1	7.3	47.9	0.2	1.1	27.1
T.J. Logan	ARI	26.6	109.3	0.5	13.5	103.1	0.4	0	26.6
Jacquizz Rodgers	TB	34.6	132.1	0.9	5.1	36.9	0.1	0.2	22.3
Justin Jackson	LAC	31.3	120.4	0.7	5.9	46.7	0.1	0.2	21.5
Wendell Smallwood	PHI	32.8	123.4	0.9	6.5	53.9	0.2	1.5	21.2
Alfred Blue	HOU	30.6	117.7	0.5	7	55.8	0.2	0.2	21
Mike Gillislee	NE	25.1	105.7	0.9	4.7	39.6	0.3	0.3	21
