Harrison Butker	KC	16	34	45
Wil Lutz	NO	16	32	48
Justin Tucker	BAL	16	28	57
Zane Gonzalez	ARI	16	31	34
Matt Gay	TB	16	27	43
Dan Bailey	MIN	16	27	40
Josh Lambo	JAC	16	33	19
Chris Boswell	PIT	16	29	28
Greg Zuerlein	LAR	16	24	42
Matt Prater	DET	16	26	35
Brandon McManus	DEN	16	29	25
Robbie Gould	SF	13	23	41
Jason Myers	SEA	16	23	40
Mason Crosby	GB	16	22	40
Joey Slye	CAR	16	25	31
Randy Bullock	CIN	16	27	24
Austin Seibert	CLE	16	25	30
Jake Elliott	PHI	16	22	35
Ka'imi Fairbairn	HOU	16	20	40
Jason Sanders	MIA	16	23	29
Steve Hauschka	BUF	16	22	30
Dustin Hopkins	WAS	16	25	21
Brett Maher	DAL	13	20	36
Eddy Pineiro	CHI	16	23	27
Daniel Carlson	LV	16	19	34
Younghoe Koo	ATL	8	23	15
Sam Ficken	NYJ	15	19	23
Chase McLaughlin	LAC	11	18	26
Adam Vinatieri	IND	12	17	22
Aldrick Rosas	NYG	16	12	35
Mike Badgley	LAC	8	13	19
Nick Folk	NE	7	14	12
Kai Forbath	NE	4	11	11
Matt Bryant	ATL	8	9	14
Stephen Gostkowski	NE	4	7	11
Ty Long	LAC	4	7	9
Mike Nugent	NE	4	5	15
Ryan Succop	TEN	6	1	24
Cairo Santos	TEN	5	4	12
Cody Parkey	TEN	3	3	5
Greg Joseph	TEN	2	0	9
Kaare Vedvik	NYJ	1	0	0
