Josh Allen	BUF	16	396	572	4544	37	10	102	421	8	465.3	29.1
Kyler Murray	ARI	16	375	558	3971	26	12	133	819	11	450.5	28.2
Aaron Rodgers	GB	16	372	526	4299	48	5	38	149	3	439.9	27.5
Deshaun Watson	HOU	16	382	544	4823	33	7	90	444	3	435.6	27.2
Russell Wilson	SEA	16	384	558	4212	40	13	83	513	2	433.9	27.1
Patrick Mahomes	KC	15	390	588	4740	38	6	62	308	2	431.8	28.8
Tom Brady	TB	16	401	610	4633	40	12	30	6	3	410.3	25.6
Justin Herbert	LAC	15	396	595	4336	31	10	55	234	5	394.2	26.3
Ryan Tannehill	TEN	16	315	481	3817	33	7	43	266	7	391.5	24.5
Lamar Jackson	BAL	15	242	376	2757	26	9	159	1005	7	384.4	25.6
Kirk Cousins	MIN	16	349	516	4265	35	13	33	156	1	374.9	23.4
Matt Ryan	ATL	16	407	626	4581	26	11	29	92	2	354.3	22.1
Derek Carr	LV	16	348	517	4103	27	9	39	140	3	345.2	21.6
Ben Roethlisberger	PIT	15	399	608	3804	33	10	25	10	0	323.2	21.5
Matthew Stafford	DET	16	339	528	4084	26	10	29	112	0	319.4	20.0
Jared Goff	LAR	15	370	552	3951	20	13	51	99	4	311.5	20.8
Baker Mayfield	CLE	16	305	486	3563	26	8	54	165	1	304.7	19.0
Teddy Bridgewater	CAR	15	340	493	3734	15	11	53	279	5	304.6	20.3
Philip Rivers	IND	16	370	544	4169	24	11	18	-8	0	303.7	19.0
Cam Newton	NE	15	242	368	2657	8	10	137	592	12	296.1	19.7
Drew Brees	NO	12	275	390	2942	24	6	18	-2	2	254.9	21.2
Carson Wentz	PHI	12	251	437	2620	16	15	52	276	5	252.6	21.1
Drew Lock	DEN	13	254	443	2933	16	15	44	160	3	244.7	18.8
Daniel Jones	NYG	14	280	448	2943	11	10	65	423	1	239.5	17.1
Joe Burrow	CIN	10	264	404	2688	13	5	37	142	3	218.6	21.9
Gardner Minshew	JAC	9	216	327	2259	16	5	29	153	1	198.3	22.0
Mitchell Trubisky	CHI	10	199	297	2055	16	8	33	196	1	192.4	19.2
Ryan Fitzpatrick	MIA	9	183	267	2091	13	8	30	151	2	183.7	20.4
Sam Darnold	NYJ	12	217	364	2208	9	11	37	217	2	180.1	15.0
Andy Dalton	DAL	11	216	333	2169	14	8	28	114	0	175.9	16.0
Nick Mullens	SF	10	211	326	2437	12	12	9	8	0	170.7	17.1
Tua Tagovailoa	MIA	10	186	290	1814	11	5	36	109	3	163.6	16.4
Taysom Hill	NO	16	88	121	928	4	2	87	457	8	156.1	9.8
Dak Prescott	DAL	5	151	222	1856	9	4	18	93	3	156.1	31.2
Nick Foles	CHI	9	202	312	1852	10	8	16	1	1	138.7	15.4
Jalen Hurts	PHI	14	77	148	1061	6	4	63	357	3	130.8	9.3
Alex Smith	WAS	8	168	252	1582	6	8	10	3	0	103.4	12.9
Dwayne Haskins	WAS	7	148	241	1439	5	7	20	46	1	102.6	14.7
Jimmy Garoppolo	SF	6	94	140	1096	7	5	10	25	0	85.3	14.2
Mike Glennon	JAC	5	111	179	1072	7	5	6	17	0	83.3	16.7
Joe Flacco	NYJ	5	74	134	864	6	3	6	22	0	69.4	13.9
Brandon Allen	CIN	5	90	142	925	5	4	13	27	0	69.0	13.8
C.J. Beathard	SF	6	66	104	787	6	0	6	28	0	66.2	11.0
Kyle Allen	WAS	4	60	87	610	4	1	7	26	1	55.1	13.8
Jake Luton	JAC	3	60	110	624	2	6	1	13	1	46.5	15.5
Jeff Driskel	DEN	3	35	64	432	3	2	6	28	0	36.4	12.1
Marcus Mariota	LV	1	17	28	226	1	1	9	88	1	30.1	30.1
Chad Henne	KC	3	28	38	248	2	0	7	-2	1	26.2	8.7
Ryan Finley	CIN	4	17	32	164	1	2	11	66	1	24.8	6.2
Colt McCoy	NYG	4	40	66	375	1	1	9	12	0	24.0	6.0