Derrick Henry	TEN	16	378	2027	17	19	114	0	0
Alvin Kamara	NO	15	187	932	16	83	756	5	0
Dalvin Cook	MIN	14	312	1557	16	44	361	1	0
Jonathan Taylor	IND	15	232	1169	11	36	299	1	0
Aaron Jones	GB	14	201	1104	9	47	355	2	0
David Montgomery	CHI	15	247	1070	8	54	438	2	0
Josh Jacobs	LV	15	273	1065	12	33	238	0	0
James Robinson	JAC	14	240	1070	7	49	344	3	0
Nick Chubb	CLE	12	190	1067	12	16	150	0	0
Kareem Hunt	CLE	16	198	841	6	38	304	5	0
Ezekiel Elliott	DAL	15	244	979	6	52	338	2	0
Melvin Gordon	DEN	15	215	986	9	32	158	1	0
Antonio Gibson	WAS	14	170	795	11	36	247	0	0
Kenyan Drake	ARI	15	239	955	10	25	137	0	0
Ronald Jones	TB	14	192	978	7	28	165	1	0
Chris Carson	SEA	12	141	681	5	37	287	4	0
Mike Davis	CAR	14	165	642	6	59	373	2	0
David Johnson	HOU	12	147	691	6	33	314	2	0
D'Andre Swift	DET	13	114	521	8	46	357	2	0
J.K. Dobbins	BAL	15	134	805	9	18	120	0	0
Miles Sanders	PHI	12	164	867	6	28	197	0	0
Clyde Edwards-Helaire	KC	13	181	803	4	36	297	1	0
Todd Gurley	ATL	15	195	678	9	25	164	0	0
Jeff Wilson	SF	11	126	603	7	13	133	3	0
James Conner	PIT	13	169	720	6	35	215	0	0
Nyheim Hines	IND	16	89	380	3	64	482	4	0
Myles Gaskin	MIA	10	142	584	3	41	388	2	0
Gus Edwards	BAL	16	144	723	6	9	129	0	0
Wayne Gallman	NYG	14	147	682	6	21	114	0	0
Chase Edmonds	ARI	16	97	448	1	53	402	4	0
Darrell Henderson	LAR	15	138	625	5	16	159	1	0
J.D. McKissic	WAS	16	85	365	1	80	589	2	0
Latavius Murray	NO	15	146	656	4	23	176	1	0
Giovani Bernard	CIN	16	124	416	3	47	355	3	0
Adrian Peterson	DET	16	156	604	7	12	101	0	0
Austin Ekeler	LAC	10	116	530	1	54	403	2	0
Devin Singletary	BUF	16	156	687	2	38	269	0	0
Leonard Fournette	TB	12	97	367	6	36	233	0	0
Jerick McKinnon	SF	14	81	319	5	33	253	1	0
Cam Akers	LAR	11	145	625	2	11	123	1	0
Tony Pollard	DAL	16	101	435	4	28	192	1	0
Jamaal Williams	GB	14	119	505	2	31	236	1	0
Malcolm Brown	LAR	16	101	419	5	23	162	0	0
Zack Moss	BUF	13	112	481	4	14	95	1	0
Damien Harris	NE	10	137	691	2	5	52	0	0
Frank Gore	NYJ	15	187	653	2	16	89	0	0
Raheem Mostert	SF	8	104	521	2	16	156	1	0
Rex Burkhead	NE	10	67	274	3	25	192	3	0
Joe Mixon	CIN	6	119	428	3	21	138	1	0
Alexander Mattison	MIN	13	96	434	2	13	125	1	0
Christian McCaffrey	CAR	3	59	224	5	17	149	1	0
Brian Hill	ATL	16	100	465	1	25	199	0	0
Boston Scott	PHI	16	80	374	1	25	212	1	0
Carlos Hyde	SEA	10	81	356	4	16	93	0	0
Devontae Booker	LV	15	93	423	3	17	84	0	0
Sony Michel	NE	8	79	449	1	7	114	1	0
James White	NE	14	35	121	2	49	375	1	0
Benny Snell	PIT	15	111	368	4	10	61	0	0
Kalen Ballage	NYJ	11	91	303	3	29	166	0	0
Kyle Juszczyk	SF	16	17	64	2	19	202	4	0
Joshua Kelley	LAC	13	111	354	2	23	148	0	0
Duke Johnson	HOU	11	77	235	1	28	249	1	0
Phillip Lindsay	DEN	11	118	502	1	7	28	0	0
Le'Veon Bell	NYJ	11	82	328	2	16	138	0	0
Salvon Ahmed	MIA	6	75	319	3	11	61	0	0
Kerryon Johnson	DET	14	52	181	2	19	187	1	0
Samaje Perine	CIN	11	63	301	3	11	66	0	0
Peyton Barber	WAS	14	94	258	4	4	12	0	0
Ty Johnson	DET	10	54	254	1	16	99	1	0
Jordan Wilkins	IND	12	84	308	1	12	105	0	0
Mark Ingram	BAL	10	72	299	2	6	50	0	0
Justin Jackson	LAC	8	59	270	0	19	173	0	0
Dion Lewis	NYG	16	29	115	2	19	127	1	0
La'Mical Perine	NYJ	9	64	231	2	11	63	0	0
Ito Smith	ATL	14	64	268	1	17	75	0	0
DeeJay Dallas	SEA	8	34	108	2	17	111	1	0
AJ Dillon	GB	9	46	242	2	2	21	0	0
Alfred Morris	NYG	9	55	238	1	3	19	1	0
Matt Breida	MIA	10	59	254	0	9	96	0	0
Darrel Williams	KC	13	39	169	1	18	116	0	0
Jalen Richard	LV	12	22	123	1	19	138	0	0
Jeremy McNichols	TEN	15	47	204	1	12	55	0	0
Josh Adams	NYJ	6	29	157	2	6	29	0	0
Jordan Howard	MIA	7	35	60	4	1	-3	0	0
Devonta Freeman	NYG	5	54	172	1	7	58	0	0
Darwin Thompson	KC	5	27	97	1	7	65	1	0
Rodney Smith	CAR	7	41	156	1	9	59	0	0
Royce Freeman	DEN	11	35	170	0	12	81	0	0
JaMycal Hasty	SF	6	39	148	1	7	33	0	0
Travis Homer	SEA	9	25	88	0	9	90	1	0
Chris Thompson	JAC	6	7	20	0	20	146	1	0
Ameer Abdullah	MIN	6	8	42	0	8	58	2	0
Ke'Shawn Vaughn	TB	6	26	109	0	5	34	1	0
Antonio Williams	BUF	1	12	63	2	1	20	0	0
Alex Collins	SEA	3	18	77	2	1	4	0	0
Dare Ogunbowale	JAC	7	32	145	0	10	54	0	0
Trayveon Williams	CIN	6	26	157	0	5	30	0	0
D'Ernest Johnson	CLE	8	33	166	0	3	14	0	0
C.J. Ham	MIN	11	5	18	0	8	97	1	0
