Rob Gronkowski	NE	14	69	1084	8
Travis Kelce	KC	15	83	1038	8
Zach Ertz	PHI	14	74	824	8
Jimmy Graham	SEA	16	57	520	10
Evan Engram	NYG	15	64	722	6
Delanie Walker	TEN	16	74	807	3
Kyle Rudolph	MIN	16	57	532	8
Cameron Brate	TB	16	48	591	6
Jack Doyle	IND	15	80	690	4
Jason Witten	DAL	16	63	560	5
Vernon Davis	WAS	16	43	648	3
Tyler Kroft	CIN	16	42	404	7
Hunter Henry	LAC	14	45	579	4
Eric Ebron	DET	16	53	574	4
Jared Cook	OAK	16	54	688	2
O.J. Howard	TB	14	26	432	6
Benjamin Watson	BAL	16	61	522	4
Austin Hooper	ATL	16	49	526	3
Charles Clay	BUF	13	49	558	2
George Kittle	SF	15	43	515	2
David Njoku	CLE	16	32	386	4
Marcedes Lewis	JAC	16	24	318	5
Garrett Celek	SF	16	21	336	4
Julius Thomas	MIA	14	41	388	3
Jesse James	PIT	16	43	372	3
Trey Burton	PHI	15	23	248	5
Austin Seferian-Jenkins	NYJ	13	50	357	3
Ed Dickson	CAR	16	30	437	1
Antonio Gates	LAC	16	30	316	3
Seth DeValve	CLE	16	33	395	1
Nick O'Leary	BUF	15	22	322	2
Jermaine Gresham	ARI	14	33	322	2
Coby Fleener	NO	11	22	295	2
Stephen Anderson	HOU	15	25	342	1
Luke Willson	SEA	16	15	153	4
Ricky Seals-Jones	ARI	10	12	201	3
Gerald Everett	LAR	16	16	244	2
A.J. Derby	DEN	11	21	244	2
Darren Fells	DET	16	17	177	3
Zach Miller	CHI	8	20	236	2
Rhett Ellison	NYG	16	24	235	2
Tyler Higbee	LAR	16	25	295	1
Jordan Reed	WAS	6	27	211	2
Adam Shaheen	CHI	13	12	127	3
Martellus Bennett	GB	9	30	286	0
Demetrius Harris	KC	16	18	224	1
Jonnu Smith	TEN	16	18	157	2
Lance Kendricks	GB	16	18	203	1
Jeff Heuerman	DEN	14	9	142	2
Greg Olsen	CAR	7	17	191	1
