Antonio Brown	PIT	16	4	13	0	129	1698	13
Jordy Nelson	GB	16	0	0	0	98	1519	13
Dez Bryant	DAL	16	0	0	0	88	1320	16
Demaryius Thomas	DEN	16	0	0	0	111	1619	11
Odell Beckham	NYG	12	7	35	0	91	1305	12
Randall Cobb	GB	16	11	37	0	91	1287	12
Emmanuel Sanders	DEN	16	8	44	0	101	1404	9
Julio Jones	ATL	15	1	1	0	104	1593	6
Jeremy Maclin	PHI	16	0	0	0	85	1318	10
T.Y. Hilton	IND	15	2	20	0	82	1345	7
Mike Evans	TB	15	0	0	0	68	1051	12
Alshon Jeffery	CHI	16	6	33	0	85	1133	10
Golden Tate	DET	16	5	30	0	99	1331	4
DeAndre Hopkins	HOU	16	0	0	0	76	1210	6
Calvin Johnson	DET	13	0	0	0	71	1077	8
Kelvin Benjamin	CAR	16	0	0	0	73	1008	9
DeSean Jackson	WAS	15	4	7	0	56	1169	6
Mike Wallace	MIA	16	4	16	0	67	862	10
Torrey Smith	BAL	16	0	0	0	49	767	11
Steve Smith	BAL	16	0	0	0	79	1065	6
A.J. Green	CIN	13	2	2	0	69	1041	6
Brandon LaFell	NE	16	2	13	0	74	953	7
Anquan Boldin	SF	16	1	4	0	83	1062	5
Jordan Matthews	PHI	16	0	0	0	67	872	8
Sammy Watkins	BUF	16	2	8	0	65	982	6
Roddy White	ATL	14	0	0	0	80	921	7
Julian Edelman	NE	14	10	94	0	92	972	4
Eric Decker	NYJ	15	0	0	0	74	962	5
Malcom Floyd	SD	16	0	0	0	52	856	6
Eddie Royal	SD	16	3	14	0	62	778	7
Michael Floyd	ARI	16	1	2	0	47	841	6
Marques Colston	NO	16	0	0	0	59	902	5
Brandon Marshall	CHI	13	0	0	0	61	721	8
Mohamed Sanu	CIN	16	7	51	0	56	790	5
Kendall Wright	TEN	14	4	54	0	57	715	6
Vincent Jackson	TB	16	0	0	0	70	1002	2
Rueben Randle	NYG	16	0	0	0	71	938	3
Andre Johnson	HOU	15	0	0	0	85	936	3
Kenny Stills	NO	15	1	-2	0	63	931	3
Greg Jennings	MIN	16	0	0	0	59	742	6
Terrance Williams	DAL	16	0	0	0	37	621	8
Jarvis Landry	MIA	16	2	-4	0	84	758	5
Martavis Bryant	PIT	10	3	12	0	26	549	8
Allen Hurns	JAC	16	0	0	0	51	677	6
James Jones	OAK	16	0	0	0	73	666	6
Keenan Allen	SD	14	0	0	0	77	783	4
Doug Baldwin	SEA	16	1	8	0	66	825	3
Robert Woods	BUF	16	0	0	0	65	699	5
John Brown	ARI	16	3	-6	0	48	696	5
Andrew Hawkins	CLE	15	3	15	0	63	824	2
Michael Crabtree	SF	16	1	4	0	68	698	4
Kenny Britt	STL	16	2	14	0	48	748	3
Andre Holmes	OAK	16	0	0	0	47	693	4
Pierre Garcon	WAS	16	0	0	0	68	752	3
Larry Fitzgerald	ARI	14	0	0	0	63	784	2
Reggie Wayne	IND	15	0	0	0	64	779	2
Brandin Cooks	NO	10	7	73	1	53	550	3
Percy Harvin	SEA	13	33	202	1	51	483	1
Markus Wheaton	PIT	16	4	19	0	53	644	2
Jarius Wright	MIN	16	5	71	0	42	588	2
Nate Washington	TEN	16	0	0	0	40	647	2
Riley Cooper	PHI	16	0	0	0	55	577	3
Dwayne Bowe	KC	15	0	0	0	60	754	0
Devin Hester	ATL	16	6	36	1	38	504	2
Taylor Gabriel	CLE	16	3	2	0	37	629	1
Miles Austin	CLE	12	0	0	0	47	568	2
Justin Hunter	TEN	12	0	0	0	28	498	3
Harry Douglas	ATL	12	0	0	0	51	556	2
Allen Robinson	JAC	10	0	0	0	48	548	2
Chris Hogan	BUF	16	0	0	0	41	426	4
Cole Beasley	DAL	16	0	0	0	37	420	4
Hakeem Nicks	IND	16	0	0	0	38	405	4
Donte Moncrief	IND	16	4	17	0	32	444	3
Jerricho Cotchery	CAR	15	0	0	0	48	580	1
Davante Adams	GB	16	0	0	0	38	446	3
Cordarrelle Patterson	MIN	16	10	117	1	33	384	1
Cecil Shorts	JAC	13	0	0	0	53	557	1
Stevie Johnson	SF	13	0	0	0	35	435	3
Jermaine Kearse	SEA	15	2	15	0	38	537	1
Brian Hartline	MIA	16	0	0	0	39	474	2
Andre Roberts	WAS	16	2	21	0	36	453	2
Tavon Austin	STL	15	36	224	2	31	242	0
Charles Johnson	MIN	11	1	-11	0	31	475	2
Wes Welker	DEN	14	0	0	0	49	464	2
Jeremy Kerley	NYJ	16	4	86	0	38	409	1
Brian Quick	STL	7	0	0	0	25	375	3
Preston Parker	NYG	16	0	0	0	36	418	2
Philly Brown	CAR	13	8	95	0	21	296	2
Stedman Bailey	STL	14	1	13	0	30	435	1
Louis Murphy	TB	11	0	0	0	31	380	2
Marqise Lee	JAC	13	3	9	0	37	422	1
Travis Benjamin	CLE	13	3	11	0	16	296	3
Kamar Aiken	BAL	16	0	0	0	24	267	3
Jason Avant	CAR	16	1	1	0	34	353	1
Damaris Johnson	HOU	16	5	19	0	31	331	1
Brice Butler	OAK	15	0	0	0	21	280	2
Victor Cruz	NYG	6	0	0	0	23	337	1
Jeremy Ross	DET	16	2	-1	0	24	314	1
Brandon Gibson	MIA	14	0	0	0	29	295	1
Brandon Lloyd	SF	14	0	0	0	14	294	1
Jaron Brown	ARI	16	0	0	0	22	229	2
Paul Richardson	SEA	15	0	0	0	29	271	1
Lance Moore	PIT	14	0	0	0	14	198	2
Ricardo Lockette	SEA	16	1	2	0	11	195	2
Derek Hagan	TEN	16	0	0	0	19	254	1
Josh Gordon	CLE	5	0	0	0	24	303	0
Brandon Tate	CIN	16	3	21	0	17	193	1
Corey Fuller	DET	16	0	0	0	14	212	1
Bruce Ellington	SF	13	6	28	1	6	62	2
Kenbrell Thompkins	NE	14	2	5	0	21	262	0
Albert Wilson	KC	12	0	0	0	16	260	0
Danny Amendola	NE	16	0	0	0	27	200	1
Rishard Matthews	MIA	14	1	3	0	12	135	2
Marlon Brown	BAL	14	0	0	0	24	255	0
Greg Salas	NYJ	10	1	20	1	8	167	0
Chris Givens	STL	14	1	4	0	11	159	1
Eric Weems	ATL	15	0	0	0	10	102	2
Chris Owusu	TB	8	1	23	1	6	78	1
Brenton Bersin	CAR	15	0	0	0	13	151	1
Mike Williams	BUF	9	0	0	0	8	142	1
Marquess Wilson	CHI	7	0	0	0	17	140	1
Adam Thielen	MIN	16	0	0	0	8	137	1
Ted Ginn	ARI	16	3	6	0	14	190	0
Austin Pettis	STL	5	0	0	0	12	118	1
Donnie Avery	KC	6	0	0	0	15	176	0
Nick Toon	NO	4	0	0	0	9	104	1
Michael Campanaro	BAL	4	0	0	0	7	102	1
Josh Morgan	CHI	14	2	30	0	10	70	1
Joseph Morgan	NO	5	1	67	0	4	92	0
Dontrelle Inman	SD	6	0	0	0	12	158	0
T.J. Graham	NYJ	12	0	0	0	3	87	1
Jacoby Jones	BAL	16	3	16	0	9	131	0
Rod Streater	OAK	3	0	0	0	9	84	1
Brian Tyms	NE	11	0	0	0	5	82	1
Dwayne Harris	DAL	16	4	7	0	7	116	0
James Wright	CIN	11	3	30	0	5	91	0
Robert Herron	TB	8	1	0	0	6	58	1
Vincent Brown	OAK	7	0	0	0	12	118	0
Santana Moss	WAS	9	0	0	0	10	116	0
Denarius Moore	OAK	10	1	1	0	12	115	0
Robert Meachem	NO	11	0	0	0	7	114	0
Corey Washington	NYG	14	0	0	0	5	52	1
Junior Hemingway	KC	14	0	0	0	12	108	0
Josh Huff	PHI	12	1	7	0	8	98	0
Dane Sanzenbacher	CIN	10	1	-1	0	9	105	0
Kevin Norwood	SEA	9	0	0	0	9	102	0
Justin Brown	PIT	8	0	0	0	12	94	0
A.J. Jenkins	KC	9	2	-2	0	9	93	0
Mike Brown	JAC	5	0	0	0	7	88	0
Keshawn Martin	HOU	16	0	0	0	6	78	0
Greg Little	CIN	6	0	0	0	6	69	0
Ryan Grant	WAS	16	0	0	0	7	68	0
Santonio Holmes	CHI	9	0	0	0	8	67	0
David Nelson	NYJ	6	0	0	0	8	65	0
Quinton Patton	SF	4	1	20	0	3	44	0
Dri Archer	PIT	12	10	40	0	7	23	0
Russell Shepard	TB	16	0	0	0	4	63	0
Ace Sanders	JAC	12	0	0	0	6	55	0
Bryan Walters	SEA	13	1	-2	0	6	57	0
Kris Durham	TEN	4	0	0	0	6	54	0
Marquise Goodwin	BUF	10	3	8	0	1	42	0
Kevin Ogletree	NYG	7	0	0	0	5	50	0
Andre Caldwell	DEN	16	0	0	0	5	47	0
Jeff Maehl	PHI	8	0	0	0	5	46	0
Frankie Hammond Jr.	KC	16	0	0	0	4	45	0
Seyi Ajirotutu	SD	16	0	0	0	4	45	0
Aaron Dobson	NE	4	0	0	0	3	38	0
Jerrel Jernigan	NYG	2	1	-2	0	6	40	0
Darrius Heyward-Bey	PIT	16	0	0	0	3	33	0
DeVier Posey	HOU	1	0	0	0	1	30	0
Ryan Broyles	DET	5	0	0	0	2	25	0
Damian Williams	MIA	4	1	-1	0	3	26	0
Jarrett Boykin	GB	13	0	0	0	3	23	0
Griff Whalen	IND	10	0	0	0	2	23	0
Cody Latimer	DEN	8	0	0	0	2	23	0
Solomon Patton	TB	7	1	19	0	0	0	0
Devin Street	DAL	16	0	0	0	2	18	0
Jeff Janis	GB	3	0	0	0	2	16	0
Tavarres King	TB	2	0	0	0	2	13	0
Brad Smith	PHI	13	0	0	0	1	11	0
Courtney Roby	ATL	4	0	0	0	1	11	0
Evan Spencer	MIN	1	5	8	0	0	0	0
Micheal Spurlock	CHI	1	0	0	0	1	8	0
Josh Cribbs	IND	6	0	0	0	1	8	0
Jalen Saunders	NYJ	8	0	0	0	1	7	0
Aldrick Robinson	WAS	5	0	0	0	1	6	0
Kevin Dorsey	GB	3	0	0	0	1	4	0
Onterio McCalebb	CIN	1	0	0	0	0	0	0
Chris Matthews	SEA	3	0	0	0	0	0	0
Shane Wynn	MIA	3	0	0	0	0	0	0
LaRon Byrd	CLE	1	0	0	0	0	0	0
Jaelen Strong	TB	1	0	0	0	0	0	0
Rico Richardson	TEN	1	0	0	0	0	0	0
Quincy Enunwa	NYJ	1	0	0	0	0	0	0
Matt Slater	NE	16	0	0	0	0	0	0
Josh Boyce	NE	1	0	0	0	0	0	0
Deonte Thompson	BUF	1	0	0	0	0	0	0
Isaiah Burse	DEN	12	0	0	0	0	0	0
Freddie Martino	ATL	1	0	0	0	0	0	0
Marlon Moore	CLE	13	0	0	0	0	0	0
Marcus Easley	BUF	10	0	0	0	0	0	0
Trindon Holliday	TB	2	0	0	0	0	0	0
Philip Bates	SEA	1	0	0	0	0	0	0
Justin Blackmon	JAC	1	0	0	0	0	0	0
Josh Bellamy	CHI	4	0	0	0	0	0	0
Marcus Thigpen	TB	9	0	0	0	0	0	0
Kassim Osgood	SF	13	0	0	0	0	0	0
Leonard Hankerson	WAS	1	0	0	0	0	0	0
Julian Talley	NYG	2	0	0	0	0	0	0
Drew Davis	ATL	6	0	0	0	0	0	0
Rodney Smith	MIN	4	0	0	0	0	0	0
Marc Mariani	CHI	6	0	0	0	0	0	0
Tommy Streeter	JAC	1	0	0	0	0	0	0
Rashad Ross	CHI	2	0	0	0	0	0	0
Marcus Harris	NYG	4	0	0	0	0	0	0
Saalim Hakim	NYJ	16	0	0	0	0	0	0
Walter Powell	NYJ	4	0	0	0	0	0	0
De'Andre Presley	CAR	4	1	-2	0	0	0	0
Chris Williams	CHI	7	1	-8	0	0	0	0
