Antonio Brown	PIT	16	3	28	0	136	1834	10
Julio Jones	ATL	16	0	0	0	136	1871	8
Brandon Marshall	NYJ	16	0	0	0	109	1502	14
Allen Robinson	JAC	16	0	0	0	80	1400	14
Odell Beckham	NYG	15	1	3	0	96	1450	13
DeAndre Hopkins	HOU	16	0	0	0	111	1521	11
Doug Baldwin	SEA	16	0	0	0	78	1069	14
A.J. Green	CIN	16	0	0	0	86	1297	10
Larry Fitzgerald	ARI	16	0	0	0	109	1215	9
Calvin Johnson	DET	16	0	0	0	88	1214	9
Eric Decker	NYJ	15	0	0	0	80	1027	12
Brandin Cooks	NO	16	8	18	0	84	1138	9
Demaryius Thomas	DEN	16	0	0	0	105	1304	6
Allen Hurns	JAC	15	0	0	0	64	1031	10
Sammy Watkins	BUF	13	1	1	0	60	1047	9
Jeremy Maclin	KC	15	3	14	0	87	1088	8
Jarvis Landry	MIA	16	18	113	1	110	1157	4
Emmanuel Sanders	DEN	15	3	29	0	76	1135	6
Jordan Matthews	PHI	16	0	0	0	85	997	8
Michael Crabtree	OAK	16	0	0	0	85	922	9
Tavon Austin	LA	16	52	434	4	52	473	5
John Brown	ARI	15	3	22	0	65	1003	7
Amari Cooper	OAK	16	3	-3	0	72	1070	6
T.Y. Hilton	IND	16	0	0	0	69	1124	5
Ted Ginn	CAR	15	4	60	0	44	739	10
Mike Evans	TB	15	0	0	0	74	1206	3
James Jones	GB	16	0	0	0	50	890	8
Travis Benjamin	CLE	16	4	12	0	68	966	5
Rueben Randle	NYG	16	0	0	0	57	797	8
Kamar Aiken	BAL	16	0	0	0	75	944	5
Randall Cobb	GB	16	13	50	0	79	829	6
Martavis Bryant	PIT	11	5	37	1	50	765	6
Golden Tate	DET	16	6	41	0	90	813	6
Michael Floyd	ARI	15	0	0	0	52	849	6
Willie Snead	NO	15	0	0	0	69	984	3
Pierre Garcon	WAS	16	0	0	0	72	777	6
Julian Edelman	NE	9	3	23	0	61	692	7
Donte Moncrief	IND	16	0	0	0	64	733	6
Marvin Jones	CIN	16	5	33	0	65	816	4
Markus Wheaton	PIT	16	0	0	0	44	749	5
Alshon Jeffery	CHI	9	0	0	0	54	807	4
Tyler Lockett	SEA	16	5	20	0	51	664	6
Anquan Boldin	SF	14	0	0	0	69	789	4
Terrance Williams	DAL	16	0	0	0	52	840	3
Jermaine Kearse	SEA	16	0	0	0	49	685	5
Stefon Diggs	MIN	13	3	13	0	52	720	4
Keenan Allen	SD	8	0	0	0	67	725	4
Rishard Matthews	MIA	11	1	4	0	43	662	4
Torrey Smith	SF	16	0	0	0	33	663	4
Nate Washington	HOU	14	0	0	0	47	658	4
Kenny Britt	LA	16	0	0	0	36	681	3
Steve Smith	BAL	7	0	0	0	46	670	3
Danny Amendola	NE	14	2	11	0	65	648	3
Cole Beasley	DAL	16	0	0	0	52	536	5
Dorial Green-Beckham	TEN	16	0	0	0	32	549	4
Seth Roberts	OAK	16	0	0	0	32	480	5
Devin Funchess	CAR	16	0	0	0	31	473	5
DeSean Jackson	WAS	10	0	0	0	30	528	4
Marques Colston	NO	13	0	0	0	45	520	4
Andre Johnson	IND	16	0	0	0	41	503	4
Malcom Floyd	SD	15	0	0	0	30	561	3
Robert Woods	BUF	14	1	0	0	47	552	3
Jamison Crowder	WAS	16	2	2	0	59	604	2
Philly Brown	CAR	14	6	38	0	31	447	4
Vincent Jackson	TB	10	0	0	0	33	543	3
Jerricho Cotchery	CAR	14	1	16	0	39	485	3
Stevie Johnson	SD	10	0	0	0	45	497	3
DeVante Parker	MIA	15	0	0	0	26	494	3
Dontrelle Inman	SD	14	0	0	0	35	486	3
Cecil Shorts	HOU	11	10	47	0	42	484	2
Dwayne Harris	NYG	15	2	12	0	36	396	4
Brian Hartline	CLE	12	0	0	0	46	523	2
Kenny Stills	MIA	16	0	0	0	27	440	3
Kendall Wright	TEN	10	5	17	0	36	408	3
Mike Wallace	MIN	16	1	6	0	39	473	2
Albert Wilson	KC	14	5	26	0	35	451	2
Mohamed Sanu	CIN	16	10	71	2	33	394	0
Dez Bryant	DAL	9	0	0	0	31	401	3
Lance Moore	DET	14	0	0	0	29	337	4
Brandon Coleman	NO	16	0	0	0	30	454	2
Chris Hogan	BUF	16	1	4	0	36	450	2
Roddy White	ATL	16	0	0	0	43	506	1
Davante Adams	GB	13	0	0	0	50	483	1
Harry Douglas	TEN	14	1	-6	0	36	411	2
Marquess Wilson	CHI	11	0	0	0	28	464	1
Brandon LaFell	NE	11	2	9	0	37	515	0
Leonard Hankerson	ATL	10	0	0	0	27	339	3
Josh Huff	PHI	15	0	0	0	27	312	3
Jarius Wright	MIN	16	1	29	0	34	442	0
Quinton Patton	SF	16	1	5	0	30	394	1
Riley Cooper	PHI	16	0	0	0	21	327	2
Andre Holmes	OAK	16	0	0	0	14	201	4
Darrius Heyward-Bey	PIT	16	0	0	0	21	314	2
Chris Givens	LA	15	4	18	0	20	353	1
Bryan Walters	JAC	11	0	0	0	32	368	1
J.J. Nelson	ARI	11	1	0	0	11	299	2
Keshawn Martin	NE	9	1	6	0	24	269	2
Ryan Grant	WAS	16	0	0	0	23	268	2
Jeremy Butler	BAL	8	0	0	0	31	363	0
Josh Bellamy	CHI	16	0	0	0	19	224	2
Nelson Agholor	PHI	13	0	0	0	23	283	1
Jaelen Strong	HOU	10	0	0	0	14	161	3
Justin Hunter	TEN	9	0	0	0	22	264	1
Adam Humphries	TB	13	0	0	0	27	260	1
Quincy Enunwa	NYJ	12	0	0	0	22	315	0
Percy Harvin	BUF	5	5	31	0	19	218	1
Jaron Brown	ARI	16	0	0	0	18	246	1
Phillip Dorsett	IND	11	3	17	0	18	225	1
Marc Mariani	CHI	16	0	0	0	22	300	0
Eddie Royal	CHI	9	1	-1	0	37	238	1
De'Anthony Thomas	KC	10	9	34	1	17	140	1
Marqise Lee	JAC	10	5	38	0	15	191	1
Miles Austin	PHI	11	0	0	0	13	224	1
Nick Williams	ATL	14	0	0	0	17	159	2
Andrew Hawkins	CLE	8	0	0	0	27	276	0
Jeremy Kerley	NYJ	16	0	0	0	16	152	2
Ty Montgomery	GB	6	3	14	0	15	136	2
Greg Jennings	MIA	16	0	0	0	19	208	1
Griff Whalen	IND	14	0	0	0	19	205	1
Chris Conley	KC	16	0	0	0	17	199	1
Brice Butler	DAL	7	0	0	0	12	258	0
Rashad Ross	WAS	13	0	0	0	8	184	1
Stedman Bailey	LA	8	0	0	0	12	182	1
Taylor Gabriel	CLE	13	0	0	0	28	241	0
Adam Thielen	MIN	16	4	89	0	12	144	0
Rashad Greene	JAC	9	0	0	0	19	93	2
Chris Matthews	SEA	13	0	0	0	13	151	1
Javontee Herndon	SD	8	1	13	0	24	195	0
Jordan Norwood	DEN	12	0	0	0	22	207	0
Bennie Fowler	DEN	16	0	0	0	16	203	0
Louis Murphy	TB	6	0	0	0	10	198	0
Andre Caldwell	DEN	14	1	3	0	10	72	2
Justin Hardy	ATL	9	0	0	0	21	194	0
Donteea Dye	TB	10	0	0	0	11	132	1
T.J. Jones	DET	10	1	-3	0	10	132	1
Devin Smith	NYJ	10	0	0	0	9	115	1
Devin Street	DAL	14	0	0	0	7	114	1
Kenbrell Thompkins	NYJ	7	0	0	0	17	165	0
Bruce Ellington	SF	13	1	7	0	13	153	0
Tyrell Williams	SD	5	0	0	0	2	90	1
Myles White	NYG	12	0	0	0	7	88	1
Marlon Moore	CLE	14	0	0	0	7	81	1
Aaron Dobson	NE	8	0	0	0	13	141	0
Andre Roberts	WAS	9	0	0	0	11	135	0
Keith Mumphery	HOU	16	0	0	0	14	129	0
Ricardo Lockette	SEA	8	0	0	0	4	69	1
Charles Johnson	MIN	11	0	0	0	9	127	0
Lucky Whitehead	DAL	15	10	107	0	6	16	0
Cameron Meredith	CHI	11	0	0	0	11	120	0
Cody Latimer	DEN	14	2	1	0	6	59	1
Brandon Tate	CIN	16	0	0	0	2	59	1
Brenton Bersin	CAR	9	0	0	0	9	119	0
Jason Avant	KC	16	0	0	0	15	119	0
Marcus Easley	BUF	13	0	0	0	1	58	1
Darius Jennings	CLE	4	0	0	0	14	117	0
Jerome Simpson	SF	5	0	0	0	5	54	1
Marlon Brown	BAL	10	0	0	0	14	112	0
Michael Campanaro	BAL	4	2	17	1	5	35	0
Jared Abbrederis	GB	9	0	0	0	9	111	0
Wes Welker	LA	8	0	0	0	13	102	0
Brian Quick	LA	13	0	0	0	10	102	0
Jeremy Ross	BAL	11	1	2	0	9	88	0
Russell Shepard	TB	13	0	0	0	3	28	1
Bradley Marquez	LA	16	0	0	0	14	88	0
Chris Owusu	NYJ	3	0	0	0	7	87	0
Corey Fuller	DET	12	0	0	0	5	83	0
Deonte Thompson	CHI	7	0	0	0	2	81	0
Jeff Janis	GB	16	0	0	0	2	79	0
Tre McBride	TEN	7	1	8	0	2	8	1
Daniel Brown	BAL	6	0	0	0	6	64	0
Hakeem Nicks	NYG	6	0	0	0	7	54	0
Dwayne Bowe	CLE	7	0	0	0	5	53	0
Kevin Smith	SEA	7	0	0	0	3	43	0
Preston Parker	NYG	2	0	0	0	5	43	0
Terrelle Pryor	CLE	3	1	-1	0	1	42	0
Greg Salas	BUF	2	0	0	0	3	41	0
Paul Richardson	SEA	1	0	0	0	1	40	0
Andrew Turzilli	TEN	3	0	0	0	2	25	0
Cordarrelle Patterson	MIN	16	2	15	0	2	10	0
Marquise Goodwin	BUF	2	0	0	0	2	24	0
T.J. Graham	NO	4	0	0	0	4	24	0
Vincent Brown	SD	1	0	0	0	1	22	0
Geremy Davis	NYG	10	0	0	0	2	21	0
DeAndrew White	SF	4	0	0	0	2	18	0
Darren Waller	BAL	6	0	0	0	2	18	0
Eric Weems	ATL	16	1	4	0	1	11	0
Mario Alford	CIN	1	0	0	0	1	15	0
Chandler Worthy	HOU	3	0	0	0	3	14	0
Kasen Williams	SEA	2	1	5	0	1	8	0
Sammie Coates	PIT	7	0	0	0	1	11	0
Jonathan Krause	PHI	2	0	0	0	2	11	0
Ben Edwards	NYG	2	0	0	0	1	9	0
Tony Washington	JAC	4	1	8	0	0	0	0
Rod Streater	OAK	1	0	0	0	1	8	0
Chris Harper	NE	5	0	0	0	1	6	0
Damaris Johnson	NE	1	1	6	0	0	0	0
Brittan Golden	ARI	16	0	0	0	1	5	0
Seyi Ajirotutu	PHI	13	0	0	0	1	4	0
Kevin Norwood	CAR	1	0	0	0	0	0	0
Matt Slater	NE	16	0	0	0	0	0	0
Saalim Hakim	KC	2	0	0	0	0	0	0
Dri Archer	PIT	8	0	0	0	0	0	0
Kaelin Clay	BAL	7	0	0	0	0	0	0
Frankie Hammond Jr.	KC	10	0	0	0	0	0	0
Matt Hazel	MIA	5	0	0	0	0	0	0
Devin Hester	ATL	5	0	0	0	0	0	0
Seantavius Jones	NO	3	0	0	0	0	0	0
Denarius Moore	BUF	5	0	0	0	0	0	0
Dezmin Lewis	BUF	1	0	0	0	0	0	0
Walter Powell	BUF	2	0	0	0	0	0	0
Vince Mayle	DAL	1	0	0	0	0	0	0
Neal Sterling	JAC	9	0	0	0	0	0	0
Rannell Hall	CLE	1	0	0	0	0	0	0
Rico Richardson	TEN	5	0	0	0	0	0	0
Nick Toon	LA	1	0	0	0	0	0	0
Evan Spencer	TB	1	0	0	0	0	0	0
Joseph Morgan	NO	2	0	0	0	0	0	0
Quan Bray	IND	9	0	0	0	0	0	0
Jacoby Jones	SD	9	0	0	0	0	0	0
Marcus Thigpen	BUF	9	1	-1	0	0	0	0
