Darius Leonard	IND	6	103	44	6	6	2	3	2	178
Lavonte David	TB	7	90	33	3.5	7	2	3	2	156.5
Bobby Wagner	SEA	11	92	50	2.5	8	2	1	1	156
Blake Martinez	GB	11	92	50	4	6	1	1	1	149
Luke Kuechly	CAR	7	95	48	2	7	2	1	1	149
Deion Jones	ATL	9	90	41	1	10	3	1	0	148.5
Leighton Vander Esch	DAL	8	105	38	0	8	2	0	0	148
Tremaine Edmunds	BUF	6	88	44	3	9	2	2	0	147
Roquan Smith	CHI	6	90	38	5.5	7	1	1	0	146
C.J. Mosley	NYJ	4	88	38	3.5	7	2	2	1	146
Myles Jack	JAC	10	90	42	4.5	6	1	1	1	145
Devin White	TB	7	83	39	4.5	5	1	3	2	143.5
Cory Littleton	LAR	9	88	33	3	12	2	1	0	141.5
Devin Bush	PIT	7	89	33	1	8	2	2	1	141.5
Jaylon Smith	DAL	8	81	37	3.5	5	1	2	2	139.5
Alec Ogletree	NYG	11	76	35	2	8	3	2	1	138.5
Joe Schobert	CLE	7	79	50	3	7	1	2	1	136
Jordan Hicks	ARI	12	83	41	2	6	2	2	1	135.5
Khalil Mack	CHI	6	51	18	13.5	3	1	3	1	135
Kwon Alexander	SF	4	88	38	2.5	5	1	2	1	135
Zach Cunningham	HOU	10	84	41	2.5	7	1	2	1	134.5
Kiko Alonso	MIA	5	80	43	0	7	2	2	1	132.5
Christian Kirksey	CLE	7	74	48	2.5	6	2	1	1	129
DeMario Davis	NO	9	82	37	5	3	0	1	1	128.5
Jarrad Davis	DET	5	75	30	6	4	1	1	1	128
Tahir Whitehead	OAK	6	88	35	1	5	1	1	1	124.5
Jayon Brown	TEN	11	65	35	5	6	1	2	1	121.5
T.J. Watt	PIT	7	49	22	10	5	1	3	1	121
Von Miller	DEN	10	46	13	13	3	0	3	2	120.5
Avery Williamson	NYJ	4	70	40	3	4	1	2	1	119
Shaun Dion Hamilton	WAS	10	64	32	5.5	4	1	2	1	119
Patrick Onwuasor	BAL	8	71	52	2	3	1	1	1	118
Eric Kendricks	MIN	12	66	41	2	7	1	1	1	117.5
Wesley Woodyard	TEN	11	66	38	4.5	3	1	1	1	116
Thomas Davis	LAC	12	70	36	2.5	4	1	2	1	115
Matt Milano	BUF	6	65	35	1.5	9	2	1	2	114.5
Bradley Chubb	DEN	10	46	25	11	3	0	2	1	113.5
Germaine Pratt	CIN	9	75	31	1.5	6	1	1	1	112.5
Chandler Jones	ARI	12	38	11	12.5	3	1	3	1	112.5
Todd Davis	DEN	10	70	38	1.5	5	1	1	1	110
Jerome Baker	MIA	5	63	30	2.5	5	1	1	1	109
Anthony Hitchens	KC	12	78	53	0	1	0	1	0	108.5
Raekwon McMillan	MIA	5	73	44	0	2	1	1	1	107
Danny Trevathan	CHI	6	70	28	2	5	1	1	1	107
K.J. Wright	SEA	11	70	33	1	5	1	1	1	105.5
Ryan Kerrigan	WAS	10	32	12	13	1	1	3	0	105
Nigel Bradham	PHI	10	66	29	1.5	6	1	1	1	102.5
Preston Brown	CIN	9	60	49	0.5	3	1	1	2	101.5
Kyle Van Noy	NE	10	56	33	4.5	2	1	1	0	100.5
Lorenzo Alexander	BUF	6	52	15	5.5	5	1	2	1	99.5
J.J. Watt	HOU	10	44	15	15.5	3	0	4	1	130.5
Aaron Donald	LAR	9	38	14	16	2	0	4	1	125
Joey Bosa	LAC	12	44	16	13.5	3	0	2	1	117
Danielle Hunter	MIN	12	46	21	13.5	2	0	1	0	115.5
Cameron Jordan	NO	9	40	15	12.5	5	1	2	1	115.5
Myles Garrett	CLE	7	36	15	14	4	0	2	1	111.5
Calais Campbell	JAC	10	43	19	11.5	3	0	2	1	109.5
Nick Bosa	SF	4	30	17	10	4	1	4	1	101.5
DeForest Buckner	SF	4	44	25	9	4	0	1	1	101.5
Jamal Adams	NYJ	4	83	25	2.5	10	1	2	2	136.5
Landon Collins	WAS	10	83	28	1	9	3	1	1	136
Derwin James	LAC	12	79	26	4.5	11	3	0	0	136
John Johnson	LAR	9	77	39	0	13	4	1	0	132.5
Justin Reid	HOU	10	68	19	1.5	12	4	2	1	129.5
Kevin Byard	TEN	11	61	25	1.5	11	6	0	1	128.5
Budda Baker	ARI	12	82	30	3	5	0	2	1	128
Reshad Jones	MIA	5	73	25	1.5	8	3	1	2	127.5
Harrison Smith	MIN	12	71	24	2	9	3	1	1	126
Keanu Neal	ATL	9	77	36	0	11	1	4	1	125
Jordan Poyer	BUF	6	67	30	2	9	4	1	1	124
Johnathan Abram	OAK	6	69	28	2	8	3	2	1	122
Jessie Bates III	CIN	9	70	35	0	9	3	0	0	117.5
Malcolm Jenkins	PHI	10	69	18	1	10	2	2	1	116
Tyrann Mathieu	KC	12	73	14	2	12	2	1	1	115
Earl Thomas	BAL	8	68	33	0	10	3	1	0	112.5
Bradley McDougald	SEA	11	66	18	1	13	3	1	1	112
Marcus Peters	LAR	9	44	39	0	12	5	1	1	111.5
Antoine Bethea	NYG	11	75	25	1	7	2	1	0	111.5
Damarious Randall	CLE	7	70	21	0	9	4	0	0	109.5
Ha'Sean Clinton-Dix	CHI	6	69	16	1.5	8	3	1	0	109
Jaquiski Tartt	SF	4	68	30	2.5	6	2	0	0	109
Jabrill Peppers	NYG	11	70	28	1.5	9	1	1	1	109
Justin Simmons	DEN	10	70	25	1	6	2	0	0	108.5
Shawn Williams	CIN	9	72	24	1	7	2	0	1	107
T.J. McDonald	MIA	5	59	24	2	9	2	1	0	107
Morgan Burnett	CLE	7	69	31	1	7	1	1	1	105.5
Eddie Jackson	CHI	6	50	15	1	12	4	1	1	104.5
Minkah Fitzpatrick	MIA	5	53	30	0	14	3	0	0	103
Darnell Savage	GB	11	60	19	1	7	2	1	1	101.5
Kyle Fuller	CHI	6	50	10	0	18	5	1	0	101
Kendall Fuller	KC	12	61	18	0	12	3	1	0	100
Josh Norman	WAS	10	44	18	0	13	4	2	1	100
