BUF	3	60	14	11	215	4321	256
SEA	2	55	23	8	235	3862	241
GB	2	57	21	8	327	4729	239
CAR	3	56	18	15	360	3858	236
HOU	3	36	30	9	266	4960	228
DET	0	55	18	11	304	4694	225
BAL	2	62	20	7	320	5245	224
STL	3	54	21	12	298	5615	218
DEN	3	30	19	12	335	4785	206
TB	1	42	17	11	319	5380	200
IND	1	39	6	15	318	4550	199
KC	2	44	7	13	270	5220	192
NYJ	0	52	11	10	320	5317	190
NE	1	35	17	8	273	4992	187
PIT	4	39	10	12	330	5299	187
NYG	1	62	12	14	433	6222	184
ARI	1	50	13	10	300	5713	182
PHI	4	44	15	16	458	6326	178
SF	1	45	27	4	346	6038	177
MIN	2	30	11	8	325	5449	176
MIA	0	35	13	8	365	4756	173
JAC	3	42	8	16	363	5684	172
CLE	3	24	22	11	349	5685	172
ATL	2	31	23	8	381	5885	169
DAL	1	30	18	18	382	6439	156
CIN	1	17	19	5	338	5545	151
SD	4	25	6	13	422	5660	151
CHI	1	38	13	12	445	6257	142
NO	0	39	14	4	436	6266	139
OAK	2	30	12	6	494	5965	126
WAS	0	33	10	13	529	6774	111
TEN	3	29	5	3	503	6299	111
