Rob Gronkowski	NE	73.9	1083.30	9.3	0.2	164
Travis Kelce	KC	82.8	999.9	6.7	0.1	139.8
Zach Ertz	PHI	76.5	849.4	6.5	0.5	123
Evan Engram	NYG	69.5	776.4	5.5	0.2	110.5
Greg Olsen	CAR	64.6	782.5	5.3	0.2	109.6
Delanie Walker	TEN	68.6	780.4	5.2	1.3	106.4
Jimmy Graham	GB	61.8	652.7	7	0.5	106.1
Kyle Rudolph	MIN	61.7	630.8	6.2	0.2	100
Jordan Reed	WAS	60.5	617.1	4.5	0.6	87.8
Jack Doyle	IND	60.7	569.7	4.5	1.2	81.4
Trey Burton	CHI	49.6	558.6	4.2	0.3	80.4
Tyler Eifert	CIN	44.3	492.3	4.8	0.3	77.7
Jared Cook	OAK	47.4	569.7	3.7	0.8	77.6
David Njoku	CLE	45.5	532.2	4.1	0.2	77.2
Charles Clay	BUF	53.7	572.5	3.2	0.3	76
Cameron Brate	TB	43.7	519.1	3.9	0.3	74.7
George Kittle	SF	44.4	509.5	3.6	0.2	72.3
Austin Hooper	ATL	44.2	487.1	3.6	0.2	69.8
O.J. Howard	TB	37.3	501.7	3.8	1.7	69.7
Vance McDonald	PIT	39.8	476.2	3.4	0.2	67.8
Ricky Seals-Jones	ARI	36.3	448.3	3.9	0.2	67.6
Eric Ebron	IND	43.5	465.9	3.5	0.5	66.4
Austin Seferian-Jenkins	JAC	45.2	474.7	3.3	0.6	66.1
Benjamin Watson	NO	43.2	440.4	3.7	0.3	65.9
Mike Gesicki	MIA	38.4	392	2.9	0.4	55.6
Hayden Hurst	BAL	37.8	369.7	2.7	0.3	52.7
Vernon Davis	WAS	32.4	402	2.5	1.4	52.3
Luke Willson	DET	31.1	316.9	2.8	0.2	48.2
Virgil Green	LAC	29.7	329.7	2.4	0.2	47
Ed Dickson	SEA	27.4	327.4	2.3	0.2	46.2
Garrett Celek	SF	23.6	287.7	2.7	0.3	44.6
Jesse James	PIT	31.3	301	2.3	0.2	43.6
Ryan Griffin	TB	29	313	2	0.8	41.7
Jake Butt	DEN	27	291.4	2.2	0.4	41.5
Nick Vannett	SEA	25.9	265	2.4	0.2	40.8
Tyler Higbee	LAR	26.6	286.1	2.1	0.3	40.6
Tyler Kroft	CIN	25.3	252.9	2.3	0.2	38.9
Jonnu Smith	TEN	25.2	255.5	2.1	0.2	37.6
Blake Jarwin	DAL	25	244.9	2.2	0.3	36.9
Gerald Everett	LAR	21.9	247.8	2.2	0.7	36.7
Stephen Anderson	HOU	21.6	256.6	1.7	0.2	35.6
Dallas Goedert	PHI	20.8	218.6	1.9	0.3	33
Rico Gathers	DAL	20.7	225.1	1.6	0.1	32.1
Nick O'Leary	BUF	20.3	252	1.4	0.7	32
Marcedes Lewis	GB	16.5	179.2	2.3	0.2	31.2
Jermaine Gresham	ARI	24.8	239	1.3	0.3	31.1
Adam Shaheen	CHI	17.9	194.5	1.8	0.1	30.2
Mark Andrews	BAL	23.4	217.9	1.5	0.2	30
