Josh Allen	BUF	605.2	400.1	4572.5	34	13.3	110.9	520.1	7.7	5.1	380.2
Patrick Mahomes II	KC	629.5	418.2	5019.5	38.5	9.1	55.3	267.2	2.9	2.5	376.1
Kyler Murray	ARI	591	391.6	4218.1	26.7	12.9	126.5	702.1	7.7	3.7	358.9
Lamar Jackson	BAL	462.1	296.1	3377.1	28.3	12.2	152.9	919.4	6.7	4	348
Dak Prescott	DAL	623	416.1	4847.3	31.1	11.1	63.5	296.6	4	4.2	341.5
Russell Wilson	SEA	575.5	384	4287.8	34.7	12.3	81.8	441.1	2.1	3.5	335
Aaron Rodgers	GB	572	385.9	4451.2	36.8	7.2	39.9	168.6	1.9	3.1	332.9
Justin Herbert	LAC	615.4	399.4	4577.3	30.5	12	61.2	273	4.4	2.6	329.3
Tom Brady	TB	621.3	404.6	4697.7	37.2	11.9	24.5	31.8	2.1	2.2	324.1
Jalen Hurts	PHI	539.9	329.6	3729.1	22.4	14.4	134.1	691.6	5.9	4.7	305.2
Ryan Tannehill	TEN	528	348.5	4109.7	30	10.5	51.8	229.3	3.5	2.9	301.4
Joe Burrow	CIN	612.2	399.9	4313.9	26.5	11.8	54.1	227.2	3	4.2	287.4
Matthew Stafford	LAR	612.2	405.4	4565.4	28.5	11.5	31.7	120.6	0.7	3.2	283.5
Trevor Lawrence	JAC	593.4	382.2	4193.1	24.7	13.1	68.8	334.1	2.3	6.2	274.9
Kirk Cousins	MIN	541.6	364.1	4272.2	29.8	13	35.3	114.2	1.1	4.1	273.9
Matt Ryan	ATL	612	400.1	4502.2	27.1	13	33	117.7	1.4	4.3	273.8
Baker Mayfield	CLE	543.3	346.7	3991.4	28	11.5	44.2	168.4	1.8	3.4	269.6
Tua Tagovailoa	MIA	574.2	374.1	3946.9	25.9	13.5	55.7	211.7	2.8	1.7	268.8
Derek Carr	LV	564.1	373.3	4301.6	26.7	11.1	30.4	106.6	1.8	5.2	267.1
Ryan Fitzpatrick	WAS	582.7	385.1	4115.3	23.4	16.6	50.6	244.6	3	2.3	263.1
Ben Roethlisberger	PIT	617.4	400.4	4171.5	29.3	14	20.9	44.8	0.5	2.2	259.1
Justin Fields	CHI	533	336.2	3625.8	22.3	12.7	92.1	458	3.4	9	257.3
Carson Wentz	IND	536.6	336.5	3701.2	24.8	12.6	58.3	254.4	2.8	5.9	252.2
Daniel Jones	NYG	547.7	343	3756.5	22.1	13.8	70.2	402.7	2.6	8.5	249.9
Sam Darnold	CAR	556.2	350.8	3923	22.2	15	50.3	220	3.3	3.9	249.8
Zach Wilson	NYJ	554.6	351.2	3950.5	21.5	15.4	66.9	319.4	2.5	6.5	247.1
Trey Lance	SF	423.7	274.3	3177.3	20	11	85	448.8	3.5	5	241.2
Jared Goff	DET	579.4	371.3	4155.3	22.4	14.9	39.9	89.3	1.7	4.2	236.6
Teddy Bridgewater	DEN	474.4	309.9	3511.7	20.8	13.1	50	209.9	2.6	2.3	229.4
Jameis Winston	NO	448.7	289.9	3257	22.4	14.4	41.5	177.1	1	4.2	206.3
Cam Newton	NE	303.5	198.4	2191.4	13	9.8	83.8	355.5	5.7	2.3	184.8
Deshaun Watson	HOU	315.3	214.9	2568.9	15.3	7	45.4	214.7	2.2	2	180.8
Tyrod Taylor	HOU	295.7	182.7	2078.4	10.9	5.5	30.9	143.8	1.2	1.1	135.3
Taysom Hill	NO	135.8	90.5	957.4	5.4	3.3	66.7	353.3	4.4	3	109
Mac Jones	NE	221.2	138.7	1561.3	9.1	6.2	18.6	69	0.9	1.2	96.2
Davis Mills	HOU	191.7	119.4	1370.1	6.6	5.1	13	55.2	0.6	1.4	77.2
Jimmy Garoppolo	SF	142.6	97.1	1129.9	6.5	3.6	11.9	25.6	0.4	1.2	66.2
Drew Lock	DEN	85.5	51.1	589.6	3.7	2.3	8.7	34.2	0.1	0.6	36.8
Andy Dalton	CHI	66.2	42.1	446.7	3	1.9	9	29.1	0.1	0.3	29
Jacob Eason	IND	45.7	27.7	312.8	1.6	1.4	2.6	12.6	0	0.2	17.2
Kyle Trask	TB	34.5	21.3	246.1	1.9	0.7	1.3	5	0	0.2	16.4
Jeff Driskel	HOU	34	21.2	244.6	1.2	0.8	3.4	18.1	0.2	0.2	15.3
Taylor Heinicke	WAS	36.8	23.4	256.4	1.3	1.4	5.7	22.8	0.1	0.2	15.2
Mason Rudolph	PIT	35.7	22	242.8	1.4	0.9	2.8	9.4	0.1	0.2	14.6
Jacoby Brissett	MIA	32	20	227.2	1.1	0.5	4.3	14.1	0.2	0.3	14.3
Phillip Walker	CAR	39.6	25.1	287.1	1	1	2	6.1	0.1	0.5	13.4
James Morgan	NYJ	32.2	19.4	220.9	1.3	1.2	1.5	5.7	0.1	0.2	12.3
Trace McSorley	BAL	24	14.8	166.1	1	0.7	4.4	18.8	0.1	0.1	11.4
Kellen Mond	MIN	20.9	13.2	152.1	1.1	0.4	1.7	7.7	0.1	0.1	10.7
Joe Flacco	PHI	30.4	19.1	203.2	1	0.7	2.4	9.8	0.1	0.7	10.6
Marcus Mariota	LV	21.1	13.1	151.6	0.8	0.7	4.5	24	0.1	0.1	10.5
Bryce Perkins	LAR	20	13	142	1	0	1	4	0	0	10.1
Feleipe Franks	ATL	25.2	15.6	174.8	1.1	1	1.1	4.1	0	0.1	9.8
Tim Boyle	DET	26.3	16.3	181	0.7	0.3	2.7	3.3	0	0	9.6
Mitchell Trubisky	BUF	18.3	12	135	0.9	0.7	3.6	15.3	0.1	0.1	9.3
Chad Henne	KC	21.2	13.2	151.6	0.7	0.2	1.3	5.8	0	0.1	9
Brian Lewerke	NYG	17	10	107	1	0	1	4	0	0	8.7
John Wolford	LAR	21.9	13.7	150.5	0.6	0.4	1.8	9.1	0	0.1	8.3
Garrett Gilbert	DAL	20.2	12.6	142.7	0.6	0.4	1.5	6.2	0	0.1	7.9
Gardner Minshew II	JAC	18.3	12.1	127.4	0.7	0.5	2.1	9.2	0	0.1	7.8
Geno Smith	SEA	17.7	11.3	124.2	0.9	0.3	1.3	2.5	0	0.2	7.8
Brandon Allen	CIN	20.9	13.2	143.4	0.6	0.5	1.3	5.1	0	0.1	7.6
Jordan Love	GB	15.5	9.6	107.7	0.9	0.3	0.7	3.1	0	0.1	7.4
Ian Book	NO	18	12	120	1	1	1	4	0	0	7.2
Chase Daniel	LAC	18.3	11.4	130.7	0.6	0.5	1.5	5.8	0	0.1	7.2
Chris Streveler	ARI	15.9	9.4	105.5	0.6	0.5	1.6	6.7	0.1	0.2	6.5
Tyler Huntley	BAL	9.5	6	67	0.5	0	3	16	0	0	6.3
Blaine Gabbert	TB	16	9.7	110.3	0.3	0	1.3	5.3	0	0	6.3
Matt Barkley	TEN	13.3	8.4	98.1	0.7	0.3	0.4	1.4	0	0.2	6
Mike Glennon	NYG	18.7	11.7	125.2	0.6	0.4	1.2	5.6	0	0.6	5.7
David Blough	DET	15.5	9.5	105.3	0.5	0.4	0.6	2.5	0	0.2	5.6
Josh Rosen	ATL	13.5	8.5	90.5	0.5	0.5	2	8	0	0	5.4
Colt McCoy	ARI	12	8	84.5	0.5	0.5	1.5	8	0	0	5.2
Dwayne Haskins	PIT	14	8.5	84	0.5	0.5	1.5	5	0	0	4.9
Case Keenum	CLE	13.3	8.3	94.3	0.6	0.4	0.9	3.7	0	0.6	4.5
Logan Woodside	TEN	6	4	44.5	0.5	0	2.5	7	0	0	4.5
Jarrett Stidham	NE	6.5	4.5	47.5	0.5	0.5	1.5	3	0	0	3.2
Nick Mullens	PHI	12	6.5	70.5	0.5	0.5	2	4	0	1	2.2
Joshua Dobbs	PIT	0	0	0	0	0	0	0	0	0	0
Easton Stick	LAC	0	0	0	0	0	0	0	0	0	0
Nick Foles	CHI	0	0	0	0	0	0	0	0	0	0
C.J. Beathard	JAC	0	0	0	0	0	0	0	0	0	0
Jake Luton	JAC	0	0	0	0	0	0	0	0	0	0
Ryan Griffin	TB	0	0	0	0	0	0	0	0	0	0
Cooper Rush	DAL	0	0	0	0	0	0	0	0	0	0
Ben DiNucci	DAL	0	0	0	0	0	0	0	0	0	0
Brett Hundley	IND	0	0	0	0	0	0	0	0	0	0
Kyle Lauletta	CLE	0	0	0	0	0	0	0	0	0	0
Sean Mannion	SEA	0	0	0	0	0	0	0	0	0	0
Kyle Allen	WAS	0	0	0	0	0	0	0	0	0	0
Trevor Siemian	NO	0	0	0	0	0	0	0	0	0	0
Will Grier	CAR	0	0	0	0	0	0	0	0	0	0
Nate Sudfeld	SF	0	0	0	0	0	0	0	0	0	0
Josh Johnson	NYJ	0	0	0	0	0	0	0	0	0	0
Nathan Peterman	LV	0	0	0	0	0	0	0	0	0	0
Brett Rypien	DEN	0	0	0	0	0	0	0	0	0	0
