Michael Thomas	NO	124.9	1484.9	9	0.3	0.9	0	0.5	263.9
Davante Adams	GB	103.6	1308.5	9.7	0	0	0	0.5	239.8
Julio Jones	ATL	99.5	1397.4	6.8	1	4.2	0	0.5	229.4
Tyreek Hill	KC	80.5	1178.9	8.4	9.9	60.7	0.4	0.4	216.2
DeAndre Hopkins	ARI	95.8	1185.8	7.6	1.3	7.6	0	0.6	212.1
Chris Godwin	TB	83.4	1189.3	7.7	1.5	9.3	0.1	0.5	207.1
Mike Evans	TB	74.5	1155.7	7.7	1	6.7	0.1	0.5	199.2
Kenny Golladay	DET	71.5	1149	7.9	0.3	1.7	0	0.5	197.1
D.J. Moore	CAR	86.2	1167.6	5.4	5.8	49.2	0.1	1	195.6
Robert Woods	LAR	86.9	1093.2	4.8	14.3	92.4	0.8	0.5	194.6
Amari Cooper	DAL	77.5	1107	7.1	1	6.6	0	0.5	192
Adam Thielen	MIN	78.5	1080.6	6.9	3.7	19.7	0.3	0.5	192
Cooper Kupp	LAR	84.2	1054.9	7.3	2	9.9	0	0.6	191.6
Calvin Ridley	ATL	78.4	1051.2	7.4	1.7	20.1	0	0.5	189.6
Allen Robinson	CHI	86.9	1075.3	6.3	1.4	8.7	0.1	0.5	189
Tyler Lockett	SEA	73.3	1044.1	7.2	4.9	27.8	0.1	0.5	186.7
Keenan Allen	LAC	85.9	1042.6	6	4.7	32	0.1	0.5	186
Odell Beckham Jr.	CLE	74.5	1054.8	6.5	2.3	11.1	0	0.5	181.9
A.J. Brown	TEN	64.3	1066.1	6.4	4.4	38.3	0.3	0.5	181.8
JuJu Smith-Schuster	PIT	80.5	1036.1	6.1	0.3	2.7	0	0.5	179.9
DeVante Parker	MIA	72.4	1065.5	6	0.4	2.6	0	0.4	178.1
Courtland Sutton	DEN	70.7	1035.3	6.3	1.1	5.2	0	0.6	176
Terry McLaurin	WAS	69.7	1034.3	6.1	0	0	0	0.5	174
T.Y. Hilton	IND	70.9	1027.6	6	0	0	0	0.5	173
A.J. Green	CIN	69.6	1000.1	5.9	0	0.7	0	0.8	168.8
Jarvis Landry	CLE	72.5	963	5.6	0.7	12.7	0.3	0.5	168.7
D.K. Metcalf	SEA	63.3	954.6	7.1	1.4	7.7	0	1.2	168
Michael Gallup	DAL	63.2	1006.4	6.1	0	0	0	0.4	167.9
Stefon Diggs	BUF	65.3	940.6	5.7	6.7	50.6	0.1	0.6	165.3
D.J. Chark	JAC	70.1	947.9	5.6	1.2	8	0	0.5	163.5
Julian Edelman	NE	75.5	893.2	4.9	9.4	56.1	0.1	0.6	161.7
Tyler Boyd	CIN	75.6	925	5.1	2.2	13.1	0	0.5	161.1
Marquise Brown	BAL	62.2	822	6.4	6.3	60	0.3	0.4	158.9
Marvin Jones	DET	64.5	872.8	6.6	1.1	3.5	0	0.4	158.5
Jamison Crowder	NYJ	71.6	817.2	5.5	1	6.3	0	0.5	150.1
Diontae Johnson	PIT	66.7	809.3	5.6	3.7	27.3	0	0.9	148.7
Sterling Shepard	NYG	68.9	794.5	4.8	5.1	39.7	0.1	0.4	146.3
Will Fuller	HOU	60.6	837.6	5.2	1.9	12.3	0.1	0.4	145.7
Christian Kirk	ARI	67.5	776.6	4.7	8.1	62.4	0.1	0.4	145.6
Brandin Cooks	HOU	60	844.2	4.4	4.8	34.1	0.1	0.4	143.6
Golden Tate	NYG	65.3	796.8	4.9	2.1	14.4	0	0.5	142.5
Preston Williams	MIA	61.9	814.7	5	0.7	3.6	0	0.8	141
Mike Williams	LAC	48	814	4.7	3.5	18.7	0.4	0.1	137.8
John Brown	BUF	53.9	782	5.3	2.5	12.9	0.1	0.4	137.6
Darius Slayton	NYG	51.7	758.6	5.6	0	0	0	0.4	134.6
Anthony Miller	CHI	59.1	740.1	4.5	2.6	14.1	0.1	0.5	131.2
Breshad Perriman	NYJ	46.7	759.6	5	2	8.4	0	0.1	130.1
Emmanuel Sanders	NO	57	715.5	4.9	1	9.1	0	0.4	129.4
Deebo Samuel	SF	50.5	670.9	3.7	10	101	0.9	0.5	129.2
DeSean Jackson	PHI	48.3	722.1	4.4	4.3	24.8	0.4	0.1	127.8
CeeDee Lamb	DAL	52.5	749	4.5	1	6.4	0	0.8	127.1
Henry Ruggs III	LV	52.7	721.5	4.5	3.7	24.5	0.1	0.8	127
Jalen Reagor	PHI	55	723.3	4.5	1.9	11.7	0.1	0.8	126.7
Robby Anderson	CAR	51.6	744.7	4.3	1.2	3.9	0	0.5	125.6
Sammy Watkins	KC	51.2	716.5	4.3	2.3	17	0	0.5	124
Jerry Jeudy	DEN	53.2	717	4.1	0.7	2.7	0	0.8	121.8
Curtis Samuel	CAR	46.5	563.1	4.1	15.2	109.4	1	0.4	120.3
Justin Jefferson	MIN	51.5	701.4	4	1.4	8.5	0.1	0.8	119.4
Allen Lazard	GB	50.6	688.2	4.1	1.3	11.7	0	0.4	118.9
N'Keal Harry	NE	47.8	607.2	4.4	6.4	43.5	0.1	0.5	114.9
Steven Sims	WAS	49.5	560.6	4.2	8.5	61.1	0.4	0.5	113.7
Dede Westbrook	JAC	57.7	616.1	3.3	3.2	23.7	0.1	0.5	112.1
Danny Amendola	DET	59.3	645.4	3	0.3	0	0	0.4	111.5
Corey Davis	TEN	46.8	644.8	3.8	1.5	12.7	0	0.4	110.9
Hunter Renfrow	LV	50.3	606.9	4.1	0	0	0	0.4	109.5
Mecole Hardman	KC	38.1	585	4.8	6.6	36.6	0.2	0.8	109.4
Cole Beasley	BUF	53.2	611.2	3.7	0	0	0	0.4	109
Michael Pittman Jr.	IND	45.7	619.5	4	1	4.3	0	0.4	108.2
Larry Fitzgerald	ARI	52.3	578.2	3.7	0	0	0	0.5	105.1
Tyrell Williams	LV	40.2	586.1	3.9	0.6	4.5	0	0.1	102.6
Brandon Aiyuk	SF	40.9	565.8	3.9	1.8	10.1	0.1	0.4	100.6
Alshon Jeffery	PHI	43.1	540.3	3.7	0.3	0.3	0.3	0.4	98.8
Randall Cobb	HOU	44.7	565.7	3	2.8	15.5	0.1	0.5	97.9
Denzel Mims	NYJ	41.7	565.1	3.1	0.7	2.7	0	0.4	95.5
Josh Reynolds	LAR	37.5	510.3	3.3	5.2	31.6	0.2	0.1	93.2
Parris Campbell	IND	39.2	490.8	3	5.8	33.2	0.2	0.2	90.4
Chris Conley	JAC	38.5	532.3	3	0	0	0	0.4	89.4
Tee Higgins	CIN	38.5	522.1	3	0.7	3	0	0.4	88.9
Russell Gage	ATL	41.4	469.2	2.8	3.4	20.9	0.1	0.2	87
Mohamed Sanu	NE	41.9	457.2	2.4	4.2	23.2	0.1	0.4	83.1
James Washington	PIT	33.8	503.7	2.7	0	0	0	0.4	82.8
Adam Humphries	TEN	41.1	440.1	2.5	0	0	0	0.1	79.2
Kenny Stills	HOU	29.7	424.9	3	0	0	0	0.1	75.3
John Ross	CIN	27.9	400.2	3.2	3.7	15.8	0	0.6	73.6
Kendrick Bourne	SF	30.3	382.5	3	0.8	5.5	0.1	0	72.4
Antonio Gandy-Golden	WAS	32.6	436.1	2	0	0	0	0.1	71.9
Miles Boykin	BAL	28.2	381.6	3.2	0	0	0	0	71.4
KJ Hamler	DEN	30.5	415.1	2.4	1	5.1	0	0.4	70.9
Chase Claypool	PIT	29.8	393.6	2.6	0.7	3	0	0.4	69.1
Phillip Dorsett	SEA	26.2	357.9	3	1.8	12.6	0	0.1	68.3
Laviska Shenault Jr.	JAC	29	382.5	1.9	7.4	48.8	0.1	0.7	68
Willie Snead	BAL	31.7	367.9	2.5	1.1	5.9	0	0.4	67.5
Jakeem Grant	MIA	30.9	361.7	2	4.6	28.5	0.2	0.1	67.5
Devin Duvernay	BAL	25.2	328.2	2	1.4	9	0	0.4	57.5
Tre'Quan Smith	NO	20.5	282.8	2.8	0.3	1	0	0	55.5
Olabisi Johnson	MIN	24.4	281.1	2.1	0.7	4.5	0	0	53.3
Zach Pascal	IND	21.6	296.5	2	1	8	0	0	52.9
David Moore	SEA	20.9	288.4	2	1.9	11.7	0	0.1	52.4
Ted Ginn	CHI	21.3	294.7	1.5	3.3	21.1	0.1	0.1	51.6
Jake Kumerow	GB	19.6	295.1	1.9	0	0	0	0.1	50.5
Marquez Valdes-Scantling	GB	19.5	296.3	1.7	0.7	7	0	0	50
Isaiah Ford	MIA	22.6	265.6	1.5	0	0	0	0.1	46.5
Andy Isabella	ARI	17.7	254.5	1.6	2.8	16.8	0.1	0.1	46
Ricardo Louis	MIA	21.1	303.1	1.1	1	4	0	1	46
Scott Miller	TB	20.7	253.1	1.3	2.1	12.3	0.1	0.1	45.4
Van Jefferson	LAR	20.7	255.8	1.5	0	0	0	0.1	44.8
Trey Quinn	WAS	22.4	264.3	1.2	0	0	0	0.1	44.8
Equanimeous St. Brown	GB	19.4	250.2	1.5	0.3	2	0	0	43.6
Keelan Cole	JAC	17.5	263.2	1.4	0.4	3.5	0	0.4	43.3
Bryan Edwards	LV	20.2	252.4	1.3	0	0	0	0.1	43.2
Jakobi Meyers	NE	18.2	236.8	1.4	0	0	0	0.1	41
Greg Ward	PHI	19.6	222.2	1.2	2.1	11.1	0	0.4	40.1
Joe Reed	LAC	17.1	240.6	1.3	1	4.3	0	0.4	40
Trent Taylor	SF	19.4	223.6	1.2	0	0	0	0.1	39.3
Demarcus Robinson	KC	15.8	213.7	1.6	0	0	0	0	38.7
Tajae Sharpe	MIN	15.6	201.5	1.5	0	2.3	0	0	37
Tyler Johnson	TB	16.5	205.7	1.1	1	6.7	0.1	0.1	36.7
Chester Rogers	MIA	18.6	197.4	1.1	0	0	0	0	35.8
Jalen Hurd	SF	15.1	181.3	1	5.4	31.6	0.1	0.1	35.5
Marvin Hall	DET	12.6	198.1	1.2	1.1	7.2	0	0	33.8
Kalif Raymond	TEN	12.7	191.5	1.3	0	0	0	0	33.1
Auden Tate	CIN	14.5	190.1	1.1	0	0	0	0	33.1
Malik Turner	GB	14.8	187.1	1.1	0	0	0	0	32.7
Dante Pettis	SF	9.7	156.2	1.9	0.5	-0.5	0	0	32
Cordarrelle Patterson	CHI	9.9	96.7	0.4	16.5	100	0.7	0.1	31.2
J.J. Arcega-Whiteside	PHI	14.4	181	0.8	0.4	2.9	0	0	30.5
Rashard Higgins	CLE	12.2	164.9	1.2	0	0	0	0	29.4
Javon Wims	CHI	13.1	156	0.9	0	0	0	0	27.3
Geremy Davis	DET	12.9	162.9	0.7	0	0	0	0	27.1
Dontrelle Inman	WAS	11.7	150.5	1	0	0	0	0	26.8
Laquon Treadwell	ATL	11.6	147.1	1	0	0	0	0	26.6
Riley Ridley	CHI	11.7	144.4	1	0	0	0	0	25.9
Richie James	SF	7.7	99.2	0.7	7.2	49	0.5	0	25.7
Gary Jennings Jr.	MIA	12.8	153.2	0.7	0	0	0	0.1	25.6
Alex Erickson	CIN	12.8	139.5	0.7	0.2	1.3	0	0	24.6
Tim Patrick	DEN	10.9	135.9	0.8	0.1	0.4	0	0	23.9
Vyncint Smith	NYJ	10.2	134.1	0.8	0.9	5.3	0	0	23.9
Jamal Agnew	DET	10.5	133.9	0.8	0	0	0	0.1	23.4
Damiere Byrd	NE	10.6	133.3	0.8	0	0	0	0.1	23.1
DaeSean Hamilton	DEN	11.8	124.5	0.7	0	0	0	0	22.4
Christian Blake	ATL	11.5	129.4	0.6	0	0	0	0	22.4
Nelson Agholor	LV	10.2	117.7	0.7	0.7	4.5	0	0	21.9
Cody Latimer	WAS	9.4	125.8	0.6	0	0	0	0	21.1
Braxton Berrios	NYJ	9.7	120.4	0.7	0	0	0	0	20.7
Isaiah McKenzie	BUF	10.1	107.6	0.5	2.1	12.7	0.1	0	20.6
KeeSean Johnson	ARI	9.3	117.2	0.7	0	0	0	0.1	20.5
Victor Bolden Jr.	DET	9.6	121.3	0.6	0	0	0	0	20.2
Taywan Taylor	CLE	8.7	107.6	0.8	0	0	0	0	19.7
Pharoh Cooper	CAR	9.3	113.2	0.6	0	0.2	0	0	19.4
