Antonio Brown	PIT	4.8	23.2	0	116.5	1537.80	10.1	1.8	213
Demaryius Thomas	DEN	0	0	0	102.1	1413.00	11.5	0.3	209.6
Dez Bryant	DAL	0.1	0.5	0	89.5	1326.40	11.8	0.4	202.4
Odell Beckham Jr.	NYG	4.1	28.1	0	101.8	1394.00	10.5	1.6	202.3
Calvin Johnson	DET	0	0	0	86.3	1307.80	10	0.3	190.2
Julio Jones	ATL	1.7	9.2	0	100.4	1400.60	8.2	1.7	186.7
Randall Cobb	GB	7.7	60.6	0	91.6	1255.30	9.3	2.2	183.3
A.J. Green	CIN	2	12.6	0	95.9	1310.70	8.4	2.4	177.6
Alshon Jeffery	CHI	4.7	29.6	0	85.7	1164.20	8.7	0.3	170.8
T.Y. Hilton	IND	2.3	14.6	0	86.2	1234.00	7.3	0.8	166.8
Mike Evans	TB	0	0	0	77.7	1144.90	8.6	0.4	165.4
Emmanuel Sanders	DEN	3.3	20.9	0	83.3	1116.50	7.7	0.3	159.3
DeAndre Hopkins	HOU	0	0	0	83.2	1172.40	6.3	1.4	152.2
Brandin Cooks	NO	9.2	68.7	0	90.4	1088.30	5.9	0.4	150.1
Jordan Matthews	PHI	0	0	0	73.6	1002.10	7.8	0.5	146.1
Julian Edelman	NE	6.6	52.2	0	96.3	1013.80	6.2	0.2	143.6
DeSean Jackson	WAS	4.2	20.9	0	64.5	1036.40	6.1	0.4	141.7
Golden Tate	DET	2.2	11.8	0	80.7	1052.90	5.6	0.3	139.6
Andre Johnson	IND	0	0	0	79.8	990.2	7	2.8	135.2
Jeremy Maclin	KC	0	0	0	71.3	941.5	6.7	0.3	134
Brandon Marshall	NYJ	0.2	0.5	0	73.1	956.2	6.4	0.9	132.1
Sammy Watkins	BUF	2.1	11.3	0	65.1	960.8	6.2	1.4	131.8
Keenan Allen	SD	0	0	0	79.5	997.2	5.5	1.8	129.3
Davante Adams	GB	0	0	0	71.6	918.5	6.3	0.3	129.2
Vincent Jackson	TB	0.1	-0.2	0	66	978.1	4.8	1	124.6
Amari Cooper	OAK	1.3	8.3	0	70.4	919.5	5.3	0.6	123.4
Steve Smith	BAL	0	0	0	70.6	938.2	5.2	1.1	122.7
Mike Wallace	MIN	1.2	10.2	0	60.2	867.6	5.8	0.7	121.1
Anquan Boldin	SF	0.2	0.8	0	71.8	932.4	4.5	0.4	119.5
Roddy White	ATL	0	0	0	71.9	880.8	5.8	1.9	118.9
Jarvis Landry	MIA	1.6	9.2	0	82.8	919.5	5.1	2.6	118.2
Eric Decker	NYJ	0	0	0	65	870.8	4.9	0.3	116.1
Michael Floyd	ARI	0.1	0.4	0	53.1	820.3	5.9	1.3	115
Allen Robinson	JAC	0	0	0	72.2	867.7	4.8	0.3	114.8
Nelson Agholor	PHI	0	0	0	59	808.8	5.7	0.9	113.5
Marques Colston	NO	0	0	0	58.1	858.9	4.9	1.1	112.8
Torrey Smith	SF	0	0	0	52.3	821.2	5.1	0.4	111.9
Charles Johnson	MIN	0.4	0.3	0	57.5	814.2	5.1	0.2	111.5
Larry Fitzgerald	ARI	0.1	0.5	0	70.7	864.3	4.5	1.7	110.1
John Brown	ARI	1.9	10.7	0	54	773.1	5.3	0.3	109.3
Devin Funchess	CAR	0	0	0	60.1	789.7	5.2	0.7	108.5
Kendall Wright	TEN	2	12.9	0	69.9	803.9	4.4	1.1	105.9
Doug Baldwin	SEA	1	6.4	0	57.7	762.4	5.1	1	105.8
Pierre Garcon	WAS	0.1	0.3	0	70.4	832.5	3.8	0.4	105.3
Terrance Williams	DAL	0.1	0.2	0	40.9	681.7	6.2	0.6	104
Malcom Floyd	SD	0	0	0	43	765.6	4.6	0.2	103.7
Dwayne Bowe	CLE	0	0	0	55.6	783.5	3.5	0.2	99.1
Rueben Randle	NYG	0	0	0	52.2	760.9	3.9	0.4	98.6
Victor Cruz	NYG	0	0	0	57.5	756.3	3.8	0.5	97.5
Brian Quick	STL	0	0	0	51.6	714.9	4	0	95.6
Eddie Royal	CHI	0.7	5.4	0	57.3	687.3	4.8	2.5	93.3
Kenny Britt	STL	0.2	0.2	0	47.6	689.2	3.8	0.3	91.3
Markus Wheaton	PIT	2.7	15.9	0	56.1	700.1	3.2	0.4	90
Kenny Stills	MIA	1.5	9.4	0	45.8	665.3	3.5	0.3	88.1
Martavis Bryant	PIT	1.5	8.1	0	34.5	548.6	5.2	0.3	86.1
Michael Crabtree	OAK	0.1	1	0	56.3	629.4	3.7	0.3	84.8
Brandon Coleman	NO	0	0	0	43.9	622	3.9	0.7	84
Steve Johnson	SD	0	-0.1	0	47	603	4	0.3	83.9
Allen Hurns	JAC	1.3	8	0	46.9	607.3	3.5	0.3	82.2
Percy Harvin	BUF	13.6	81.3	0.7	53.4	559.3	3.1	2.8	81.1
Breshad Perriman	BAL	0	0	0	39.2	566.3	4	0.5	79.5
Brandon LaFell	NE	0.3	1.9	0	44.3	571.3	4	1	79.1
Devante Parker	MIA	0	0	0	43.6	575.8	3.6	0.6	77.8
Jerricho Cotchery	CAR	0	1.6	0	48.1	591.4	3.2	0.4	77.8
Greg Jennings	MIA	0	0	0	40.7	542.2	3.8	0.3	76.1
Marvin Jones	CIN	1	6.6	0	39.2	526.4	3.9	0.3	76
Andrew Hawkins	CLE	3.5	25.9	0	47.1	580.8	2.3	0.2	74.3
Jermaine Kearse	SEA	0.5	3.9	0.1	36.9	530.3	3	0.4	71
Cody Latimer	DEN	0	0	0	39.1	518	3.3	0.4	71
Cole Beasley	DAL	0	0	0	45.3	522.5	3.5	1.7	70
Brian Hartline	CLE	0	0	0	40.3	561.1	2.2	0.2	69.1
Ty Montgomery	GB	2	13.3	0	35.4	482.1	3.3	0.5	68.1
Dexter McCluster	TEN	45	184	1	40	362	1	0	66.6
Philly Brown	CAR	3.4	24.2	0	35.1	500.6	2.7	1.5	65.7
Kamar Aiken	BAL	0	0	0	35	445.7	3.4	0.3	64.7
Nate Washington	HOU	0	0	0	33.3	492.8	2.4	0.3	62.8
Danny Amendola	NE	0.1	0.1	0	43.9	452.8	2.9	0.2	62
Tavon Austin	STL	18.1	154.1	0.4	35.8	343.6	1.6	0.3	61.6
Robert Woods	BUF	0.1	0.1	0	35.9	449.5	3	1	61.2
Cecil Shorts	HOU	0	0	0	40.4	513.8	2.2	1.6	61.2
Mohamed Sanu	CIN	3	20.6	0	34.6	426.1	2.8	0.3	60.7
Donte Moncrief	IND	2.1	12.6	0	29.4	402.8	2.7	0.3	57.4
Taylor Gabriel	CLE	0.9	9.4	0	29.6	441.3	2.1	0.2	57.2
Marqise Lee	JAC	0.6	2.4	0	39.3	472.1	1.7	0.3	56.9
Jarius Wright	MIN	2	13.5	0	30.4	396.4	2.3	0	54.7
Jeff Janis	GB	0	0	0	28.6	394.5	2.6	0.5	53.9
Leonard Hankerson	ATL	0	0	0	29.9	368.3	2.9	0.3	53.7
Harry Douglas	TEN	0	0	0	35.7	432.4	1.9	0.7	53.3
Rod Streater	OAK	0	0.2	0	29.4	399.9	2.4	0.8	52.5
Andre Roberts	WAS	1.1	5.1	0	33.3	423.3	2.1	2.2	50.9
Phillip Dorsett	IND	1.3	8.7	0	27.1	368.6	2.4	0.6	50.8
Tyler Lockett	SEA	0.7	5	0	27.1	383.2	2.1	0.4	50.5
Dorial Green-Beckham	TEN	0	0	0	27.3	383.1	2.2	0.5	50.4
Andre Holmes	OAK	0	0	0	23.6	373.7	2.2	0.3	50.2
Riley Cooper	PHI	0	0	0	28.4	376.7	2.3	1	49.4
Cordarrelle Patterson	MIN	8.3	67.9	0.3	26.4	319.8	1.5	1.3	47.2
Chris Conley	KC	0	0	0	28	350.5	2	0	47.1
Stedman Bailey	STL	0.1	0.9	0	26.9	354.5	1.7	0.3	45.4
Devin Smith	NYJ	0.3	3.3	0	24.1	333.6	2.1	0.5	45.3
Jaelen Strong	HOU	0	0	0	25.7	349.5	1.8	0.6	44.7
Louis Murphy	TB	0	0	0	28.8	356.9	1.7	0.8	44.4
Albert Wilson	KC	0	0	0	25.4	345.3	1.7	0.3	44.3
Justin Hunter	TEN	0	0	0	20.6	341.8	1.7	0.3	43.8
Marquess Wilson	CHI	0	0	0	28.5	325.2	1.8	0.3	42.8
De'Anthony Thomas	KC	15	92	0	27.4	236	1.8	0.3	42.7
Ryan Grant	WAS	0	0	0	22.6	335	1.5	0.6	41.3
Jeremy Kerley	NYJ	1	6.5	0	24.1	300.5	1.8	0.3	41.1
Justin Hardy	ATL	0	0	0	22.7	289.9	1.6	0	38.5
Marlon Brown	BAL	0	0.2	0	23.5	280.5	1.8	0.3	38.4
Reggie Wayne	FA	0	0	0	24	315	1	0	37.5
Jeremy Ross	FA	0	0	0	22.6	307	1.8	2.1	37
Kevin White	CHI	0	0	0	21	287	1	0	34.7
Jacoby Jones	SD	0.7	0.6	0	20.8	267	1.3	1.8	30.9
Hakeem Nicks	FA	0	0	0	18	249	1	0	30.9
Jason Avant	KC	0.3	0.5	0	25	258.6	0.9	0.3	30.8
Devin Hester	ATL	0.7	3	0	21.7	276.9	1	1.7	30.5
Andre Caldwell	DEN	0.2	1	0	18.2	242.4	1	0.3	29.9
Ted Ginn	CAR	2.7	17	0	17.1	244.1	1.3	2.2	29.5
Quinton Patton	SF	0.8	5.3	0	20.7	261	1.1	2.4	28.5
Corey Fuller	DET	0	0	0	17.8	253.8	1.2	2.5	27.7
Ricardo Lockette	SEA	0.5	3.2	0.1	13.9	190.1	1.1	0.2	25.9
Josh Huff	PHI	0.6	1.7	0	19	256.9	1.2	3.8	25.7
Bruce Ellington	SF	0.3	1.9	0	10.7	151.3	1.6	0.4	24.2
Jaron Brown	ARI	0	0	0	12.5	186.7	0.9	0.3	23.7
Brandon Tate	CIN	0.8	5.4	0	18.1	223.1	0.8	1.9	23.6
Chris Matthews	SEA	0	0	0	12.8	177.4	1	0	23.5
Rishard Matthews	MIA	0.3	0.6	0	12.9	162.8	1	0	22.5
Chris Hogan	BUF	0	0	0	15.5	183.3	1.4	2.4	22
Preston Parker	NYG	0	0	0	12.5	159	0.8	0.2	20.1
Sammie Coates	PIT	0	0	0	11.1	150.1	0.7	0	19
Michael Campanaro	BAL	0	0	0	11.8	152	0.8	0.4	18.9
Paul Richardson	SEA	0	0	0	10.5	148.5	0.5	0	17.9
Joseph Morgan	FA	0	0.8	0	8.6	139.6	0.6	0	17.7
Dontrelle Inman	SD	0	0	0	9.6	130.2	0.7	0	17.3
Travis Benjamin	CLE	1.7	10.1	0	7.9	123.2	0.4	0	15.7
Jerome Simpson	SF	0	0	0	8.8	120.2	0.5	0	15.2
Devin Street	DAL	0	0	0	9.3	124.5	0.1	0	13.3
Miles Austin	PHI	0	0	0	7.1	90.7	0.7	0	13.1
Darrius Heyward-Bey	PIT	0.3	1.2	0	9.8	108.2	0.5	0.6	12.5
Eric Weems	ATL	0	0	0	6.7	89.7	0.5	0	11.7
Duron Carter	FA	0	0	0	4.9	66	0.6	0	9.9
Saalim Hakim	FA	0	0	0	6	81.7	0.3	0	9.7
Darren Waller	BAL	0	0	0	5.6	70.9	0.4	0	9.7
Matt Slater	NE	0	0	0	5.6	70.6	0.4	0	9.5
Rashad Ross	WAS	0	0	0	5.7	71.7	0.3	0	8.9
Jamison Crowder	WAS	0	0	0	5.7	71.7	0.3	0	8.9
Marlon Moore	CLE	0	-0.2	0	5.8	71.9	0.2	0	8.6
Chris Givens	STL	0	0.2	0	5.4	79.7	0.1	0	8.6
J.J. Nelson	ARI	0	0	0	5.3	63.7	0.3	0	8.4
Ryan Spadola	ARI	0	0	0	5.1	64.6	0.3	0	8.1
Deonte Thompson	FA	0	0	0	5.1	59.9	0.3	0	7.7
Rashad Greene	JAC	0	0	0	5	77	0	0	7.7
Kenny Bell	TB	0	0	0	6	77	0	0	7.7
DeVier Posey	FA	0	0	0	6	77	0	0	7.7
Kevin Dorsey	NE	0	0	0	4.7	55.5	0.4	0	7.7
Marquise Goodwin	BUF	0.1	-0.8	0	4.6	62.8	0.2	0	7.3
Lance Moore	DET	0	0	0	4.5	56.7	0.2	0	6.9
Brice Butler	OAK	0	0	0	4.3	54.1	0.2	0	6.8
Stefon Diggs	MIN	0	0	0	4.3	55	0.1	0	6.3
Aaron Dobson	NE	0	0	0	4	50.3	0.2	0	6.3
Austin Pettis	FA	0	0	0	3.6	38.5	0.4	0	6.3
Josh Morgan	FA	0	0	0	4.5	52.8	0.1	0	5.9
Keshawn Martin	HOU	0	0	0	4.2	48	0.2	0	5.8
Mike Brown	CAR	0	0	0	3.1	49	0.2	0.2	5.7
Marc Mariani	CHI	0	0	0	3.6	44.8	0.2	0	5.6
Adam Thielen	MIN	0	0	0	3.5	44	0.2	0	5.5
Seyi Ajirotutu	PHI	0	0	0	3.9	44.2	0.2	0	5.4
Kris Durham	FA	0	0	0	5.2	49.5	0	0	5
Rodney Smith	FA	0	0	0	4.4	49.8	0	0	5
Dwayne Harris	NYG	0.3	2.7	0	2.9	39.6	0.1	0.1	4.8
Vincent Brown	FA	0	0	0	3.3	41.5	0.1	0	4.8
Chris Owusu	FA	0	0	0	3.8	38.9	0.1	0	4.2
Marcus Easley	BUF	0	0	0	2.6	30.1	0.2	0	4
Frankie Hammond	KC	0	0	0	2.3	34	0.1	0	3.8
Greg Little	CIN	0	0	0	2.5	28.1	0.1	0	3.4
Russell Shepard	TB	0	0	0	1.9	28.9	0.1	0	3.4
Christion Jones	MIA	0	0	0	1.6	19.4	0.1	0	2.5
Griff Whalen	IND	0	0	0	1.9	20.3	0.1	0.1	2.4
Brenton Bersin	CAR	0	0	0	1.7	20.3	0.1	0.1	2.4
Josh Bellamy	CHI	0	0	0	1.3	16.2	0.1	0	2.2
Jalen Saunders	FA	0	0	0	1.4	17.8	0.1	0.1	2.2
Jacoby Ford	FA	0	0	0	1.5	11.9	0	0.1	1
