DeAndre Hopkins	HOU	105	1469.30	10.1	0.5	-0.6	0	0.9	258.4
Julio Jones	ATL	106.6	1559.20	8.3	1.6	10.8	0	0.9	258.1
Davante Adams	GB	105.3	1334.90	10.7	0	0	0	0.5	249.6
JuJu Smith-Schuster	PIT	105	1399.90	8.8	0.5	4.5	0	0.5	244.7
Michael Thomas	NO	114.1	1353.40	8.4	0	0	0	0.6	241.7
Tyreek Hill	KC	82.4	1315.40	8.9	14.4	103.7	1	0.5	241.3
Mike Evans	TB	87.7	1396.20	7.5	0	0	0	0.5	227.4
Odell Beckham Jr.	CLE	89.1	1249.90	9.2	4.1	16.9	0	0.5	225.9
Antonio Brown	OAK	95.5	1224.80	8.9	0	0	0	0.5	222.8
Keenan Allen	LAC	98.5	1278.10	6.7	3.7	27.6	0	0.6	219
Adam Thielen	MIN	90.7	1178.80	6.7	3.6	20.9	0	0.5	204.8
T.Y. Hilton	IND	80.1	1259.80	6.5	0	0	0	0.5	204.1
Julian Edelman	NE	92.3	1105.20	6.4	8.3	76.2	0.2	0.5	202.7
Stefon Diggs	MIN	90.7	1026.10	7.7	7.1	35.5	0	0.5	197
Amari Cooper	DAL	80.8	1096.70	7.7	1.2	8.9	0	0.6	195.8
Brandin Cooks	LAR	75.2	1138.50	6.1	7.6	46.4	0.4	0.5	194.2
Robert Woods	LAR	78.7	1066.30	5.7	11.9	84.8	0.8	0.5	192
Kenny Golladay	DET	74.1	1087.30	6.1	0.9	6.3	0	0.5	182.1
Tyler Lockett	SEA	64.9	1023.40	7	8.7	54.1	0.1	0.5	181.7
Cooper Kupp	LAR	71	947	7.2	3.6	22.9	0	0.5	175.2
Chris Godwin	TB	73.5	997.7	6.3	0	0	0	0.6	173.1
Tyler Boyd	CIN	77	997.4	5.8	1	3.4	0	0.4	172.6
Alshon Jeffery	PHI	67.3	910.6	6.7	0	0	0	0.5	164.1
A.J. Green	CIN	65.5	947.9	6.3	0	0	0	0.9	163.9
Mike Williams	LAC	57.8	852.9	7.7	3.7	19.2	0.3	0.5	163.2
Allen Robinson	CHI	66.4	922.4	5.7	0.6	3.9	0.1	0.5	159.3
D.J. Moore	CAR	65.1	893.4	4.2	13	127.8	0.1	1.3	157.8
Jarvis Landry	CLE	72.9	861.4	5.1	3.5	30.8	0.3	0.5	157.1
Calvin Ridley	ATL	64.6	812.3	6.8	5.5	28.8	0	0.5	156.5
Sammy Watkins	KC	62.9	885.8	5.9	2.8	19.2	0	0.5	156.4
Robby Anderson	NYJ	55.4	832	6.3	3.1	11.3	0	0.9	148.4
Josh Gordon	NE	53.9	879.3	5.6	0	0	0	0.4	147.9
Christian Kirk	ARI	64.6	855.8	4.8	2.2	18.2	0	0.5	147.7
Marvin Jones	DET	55.8	825.5	6.1	0	0	0	0.4	146.3
Sterling Shepard	NYG	64.9	849.1	4.6	2.6	16.1	0	0.4	145.9
Dede Westbrook	JAC	68.3	786.4	5	4.7	40.1	0	1	145.3
Emmanuel Sanders	DEN	67.5	818.2	4.3	1.5	14.4	0.3	0.5	143.5
Larry Fitzgerald	ARI	69.1	757	5.3	0	0	0	0.5	141
Corey Davis	TEN	62.4	815.6	4.3	4	32.4	0	0.5	141
Will Fuller	HOU	54.9	793.6	5.7	0.5	2.4	0	0.4	140.5
Dante Pettis	SF	56	793.6	5.6	0.9	0.1	0	0.4	140.3
Curtis Samuel	CAR	54.8	681.2	4.8	10.8	97.6	1.1	0.4	139.9
Mohamed Sanu	ATL	60.6	743.7	3.8	3.7	24.6	0.1	0.5	129
Kenny Stills	MIA	48.3	732.5	4.9	0	0	0	0.5	126
Courtland Sutton	DEN	48.4	728.5	4.4	0.5	0.2	0	0.1	123.6
Jamison Crowder	NYJ	57.2	696.2	4.1	2.9	18.4	0	0.5	123.5
DeSean Jackson	PHI	44	715.4	4.1	4.1	27.9	0.4	0.4	122.5
Donte Moncrief	PIT	51.5	689.5	4.5	0	0	0	0.4	121.1
Michael Gallup	DAL	46.9	714.7	4.3	0	-0.2	0	0.1	120.5
Geronimo Allison	GB	51.6	695.9	4.1	0	0	0	0.5	119.1
Tyrell Williams	OAK	50.5	711.8	3.8	0.6	3.9	0	0.5	118.7
Marquez Valdes-Scantling	GB	48	673.7	3.8	1.8	15	0	0.4	114.8
Devin Funchess	IND	46.8	592.9	5.3	0	0	0	0.4	113.8
DaeSean Hamilton	DEN	57.1	624.4	3.9	0	0	0	0.4	113.3
John Brown	BUF	43.2	646.9	4.4	0.8	2.7	0	0.1	112.6
Ted Ginn	NO	43.8	626.6	3.5	8.6	57	0.3	0.4	112.2
Albert Wilson	MIA	48.1	601.6	3.9	6.8	29	0.1	0.4	109.9
Keke Coutee	HOU	55	609.1	3.4	4.4	15.7	0.1	0.5	109.6
Golden Tate	NYG	54.5	614.9	3.2	2.2	16.5	0	0.5	108.9
Devante Parker	MIA	48.9	641.1	3.3	0	0	0	0.1	108.3
Anthony Miller	CHI	43.3	568.8	4.7	3.3	15.1	0	0.4	107.7
James Washington	PIT	42.7	617.1	3.7	0	0	0	0.4	104.4
Adam Humphries	TEN	51.9	572.2	3	1.8	10.3	0	0.4	101.6
D.K. Metcalf	SEA	39.2	547.6	4.7	0.7	4	0	0.6	101.5
Marquise Goodwin	SF	36.3	572	3.9	3.1	18.4	0	0.1	100.7
Marqise Lee	JAC	46.6	593.8	2.7	2.2	16.3	0	0.4	99.9
Danny Amendola	DET	55.1	543.6	2.7	0.9	3.8	0	0.4	97.4
Taylor Gabriel	CHI	48.1	542.7	2.6	5.5	38.7	0.1	0.5	97.3
Zay Jones	BUF	40.9	520	4	0.6	4.2	0	0.4	96.3
Paul Richardson	WAS	39.6	568.1	3	1.8	11.8	0	0.1	96
Quincy Enunwa	NYJ	45.5	569.2	2.8	0.7	0.1	0	0.4	95.5
Marquise Brown	BAL	37.3	537.3	3.3	5.3	37.2	0	0.8	94.5
Deebo Samuel	SF	42.1	539	3	1.4	8.7	0	0.4	93.5
Parris Campbell	IND	40.8	503	3.4	3	17.7	0.1	0.4	92.3
Cole Beasley	BUF	47	531.2	2.7	0	0	0	0.4	91.7
Josh Doctson	WAS	40.3	531.3	3	0.1	-0.6	0	0.1	91.2
Robert Foster	BUF	32.8	538.3	3.5	0	0	0	0.1	91.2
Willie Snead	BAL	46.8	523.2	2.5	0.7	4.6	0	0.4	90.3
Randall Cobb	DAL	46.3	498.6	2.6	2.5	9.9	0	0.4	89.1
Tre'Quan Smith	NO	33.6	481.9	3.4	0.4	1.7	0	0.1	85.6
David Moore	SEA	31.9	462.6	3.7	0.4	1.9	0	0.1	84.7
Nelson Agholor	PHI	37.7	457.9	3	3.1	23.1	0.1	0.4	84.4
Rashard Higgins	CLE	36.1	483	3.1	0.1	0.7	0	0.4	84.3
Breshad Perriman	TB	29.4	477.4	2.5	2.3	6.4	0	0.1	78
A.J. Brown	TEN	34.6	435.8	2.4	0	0	0	0.1	74.9
Chris Conley	JAC	33.6	430.2	2.5	0	0	0	0.2	74.7
N'Keal Harry	NE	30.3	406.5	2.9	1.1	6.3	0	0.4	73.4
Terry McLaurin	WAS	33.6	422.5	2.3	0	0	0	0.1	72.6
Andy Isabella	ARI	31.8	402.8	2.5	1.3	8.1	0	0.1	72.1
Miles Boykin	BAL	28.6	413.7	2.7	1	4.7	0	0.4	71.7
John Ross	CIN	28.4	321.2	3.8	2.7	8.3	0	0	69.8
Trey Quinn	WAS	34.7	389	2.1	1.3	7.3	0	0.1	69.4
Mecole Hardman	KC	24.4	355.6	2.7	4.8	30.4	0.3	0.4	68
D.J. Chark	JAC	33	414.3	1.9	0	0	0	1.4	66.6
Travis Benjamin	LAC	23.8	366.2	2	6.6	41.7	0.3	0.4	65.8
Cody Latimer	NYG	24.9	384.1	2.2	0	0	0	0.4	63.3
Demarcus Robinson	KC	24.3	333.7	2.5	0	0	0	0	60.7
Antonio Callaway	CLE	24.2	329	2.5	1	3.9	0	0.4	59.6
Hunter Renfrow	OAK	30.9	342	1.6	0	0	0	0.1	59.3
Chris Hogan	CAR	23.2	323.3	1.9	0.4	2.2	0	0	55.7
Josh Reynolds	LAR	18.8	254.2	2.2	2.2	14	0	0	49.4
Chad Beebe	MIN	23.9	266.6	1.8	0	0	0	0.1	49.3
Keelan Cole	JAC	22.8	300	1.3	0	0	0	0.1	49.3
Taywan Taylor	TEN	23.3	284.2	1.4	0.8	4.9	0	0.4	48
Keith Kirkwood	NO	19.3	261.8	1.9	0	0	0	0	47.4
KeeSean Johnson	ARI	20.9	270.6	1.5	0	0	0	0.1	46.4
Jarius Wright	CAR	22.3	259.2	1.3	1.5	10.6	0	0.2	45.6
Cam Sims	WAS	21.2	262.1	1.4	0	0	0	0	45.2
J.J. Arcega-Whiteside	PHI	19.7	257.5	1.6	0	0	0	0.1	45.2
Chester Rogers	IND	20	238.8	1.5	0.8	5	0	0	43.8
Tim Patrick	DEN	19.3	269.6	1	2	7	0	0.1	43.6
Equanimeous St. Brown	GB	18.6	244.3	1.5	0.1	0.9	0	0	43
Jaron Brown	SEA	15.7	212.8	2.2	0.2	2.4	0	0	42.9
Ryan Switzer	PIT	21.8	223.7	1.1	2.5	14.3	0.2	0.1	41.9
Jakeem Grant	MIA	18.5	246.2	1.2	0.3	0.8	0	0	41.1
Michael Crabtree	ARI	20.6	247.6	1	0	0	0	0	41
Cordarrelle Patterson	CHI	12.9	150.5	0.9	12.6	76	0.6	0.1	38
Demaryius Thomas	NE	17.3	212.7	1.3	0	0	0	0	37.9
Trent Taylor	SF	19.3	216.6	1.1	0	0	0	0.2	37.6
Seth Roberts	BAL	16.7	215.2	1.2	0.1	1	0	0	37.3
Eli Rogers	PIT	18.6	203.7	0.9	1.3	6.3	0	0	36
Bennie Fowler	NYG	14.1	211.1	1.3	0	0	0	0	35.7
Preston Williams	MIA	16.8	215.6	0.8	0	0	0	0.1	34.5
Chris Moore	BAL	15.3	203.4	0.9	2	11	0	0.1	34.3
Jordan Taylor	MIN	16.7	185.6	1.3	0	0	0	0.1	34.3
Justin Hardy	ATL	16	188.2	1.2	0	0	0	0	34.1
Justin Watson	TB	15.8	201.3	1	0	0	0	0.1	34
Laquon Treadwell	MIN	19.2	194.6	0.8	0	0	0	0	34
Kendrick Bourne	SF	15	202.8	1	0.1	0.2	0	0	33.9
Phillip Dorsett	NE	13.8	166.8	1.3	1.7	11	0	0	32.9
Darius Slayton	NYG	13.5	194.8	1	0	0	0	0.1	32.2
Marcell Ateman	OAK	14.1	185.2	1.1	0	0	0	0.1	32.1
Deon Cain	IND	14.5	181.4	1.1	0	0	0	0.1	31.8
Hakeem Butler	ARI	13.2	180.5	1.2	0	0	0	0.1	31.4

